[
  {
    "_id": "5cd73086cc15a81795de35b8",
    "index": 0,
    "isActive": true,
    "picture": "https://besthqwallpapers.com/Uploads/25-9-2018/66680/thumb2-tesla-model-x-novitec-2018-exterior-white-electric-car.jpg",
    "year": 2012,
    "price": 532,
    "color": "blue",
    "carType": "Coupe",
    "title": "Selling car!",
"name": "Mable",
    "carmark": "Huyndai",
    "email": "mableabbott@providco.com",
    "phone": "+1 (960) 445-3422",
    "about": "Id quis non exercitation velit eiusmod occaecat ut cupidatat adipisicing id exercitation in adipisicing nostrud. Laboris esse ad qui enim anim dolore sint. Qui adipisicing ut irure commodo eu proident labore Lorem culpa veniam. Qui veniam voluptate laborum ea qui aute cupidatat occaecat irure. In pariatur velit magna laboris consectetur. Duis do ipsum culpa eiusmod adipisicing fugiat laborum exercitation anim qui pariatur non exercitation.\r\n",
    "registered": "2017-09-13T05:58:49 -03:00",
    "tags": [
      "culpa",
      "dolor",
      "esse",
      "magna",
      "ex",
      "elit",
      "eu"
    ]
  },
  {
    "_id": "5cd73086214204d022f3305b",
    "index": 1,
    "isActive": false,
    "picture": "https://besthqwallpapers.com/Uploads/25-9-2018/66680/thumb2-tesla-model-x-novitec-2018-exterior-white-electric-car.jpg",
    "year": 2010,
    "price": 1557,
    "color": "red",
    "carType": "Hybrid",
    "title": "Selling car!",
"name": "Eddie",
    "carmark": "Mercedes",
    "email": "eddieabbott@providco.com",
    "phone": "+1 (863) 551-2705",
    "about": "Fugiat officia ut ipsum minim dolor non adipisicing culpa enim dolor magna quis. Dolor officia dolore irure ut culpa ad occaecat magna eu pariatur et quis. Adipisicing qui culpa magna Lorem Lorem sint ad. Lorem est cillum reprehenderit fugiat adipisicing esse nisi qui magna aliquip. Voluptate in tempor in voluptate qui irure velit deserunt est est velit. Magna reprehenderit ut cupidatat velit aliqua qui voluptate ipsum minim voluptate magna voluptate aliqua.\r\n",
    "registered": "2017-10-18T09:08:11 -03:00",
    "tags": [
      "tempor",
      "minim",
      "sit",
      "nulla",
      "ex",
      "laborum",
      "aute"
    ]
  },
  {
    "_id": "5cd730860741ac26af7b14a5",
    "index": 2,
    "isActive": true,
    "picture": "https://besthqwallpapers.com/Uploads/25-9-2018/66680/thumb2-tesla-model-x-novitec-2018-exterior-white-electric-car.jpg",
    "year": 2019,
    "price": 2655,
    "color": "black",
    "carType": "Passenger car",
    "title": "Selling car!",
"name": "Emily",
    "carmark": "Opel",
    "email": "emilyabbott@providco.com",
    "phone": "+1 (861) 535-3427",
    "about": "Voluptate mollit deserunt aliqua occaecat anim proident et deserunt enim cupidatat. Ullamco proident sunt labore voluptate occaecat duis enim nostrud do reprehenderit laborum officia deserunt. Aute cillum enim nulla occaecat. Officia proident labore tempor magna sint adipisicing tempor laborum sint veniam nisi amet excepteur velit. Do est occaecat mollit in et voluptate veniam minim consequat incididunt laborum aliquip. Eu Lorem dolor cillum proident.\r\n",
    "registered": "2016-10-02T01:25:10 -03:00",
    "tags": [
      "est",
      "ad",
      "culpa",
      "dolore",
      "Lorem",
      "Lorem",
      "eu"
    ]
  },
  {
    "_id": "5cd730868f63adc973248e5f",
    "index": 3,
    "isActive": false,
    "picture": "https://besthqwallpapers.com/Uploads/25-9-2018/66680/thumb2-tesla-model-x-novitec-2018-exterior-white-electric-car.jpg",
    "year": 1994,
    "price": 8881,
    "color": "black",
    "carType": "Sedan",
    "title": "Selling car!",
"name": "Guzman",
    "carmark": "Mercedes",
    "email": "guzmanabbott@providco.com",
    "phone": "+1 (906) 406-3835",
    "about": "Excepteur proident laboris amet tempor veniam adipisicing consectetur reprehenderit aliqua veniam enim eiusmod esse. Veniam nulla eu ipsum labore occaecat occaecat eiusmod ad. Tempor elit pariatur quis ea tempor magna ullamco ex aliquip dolor mollit. Irure fugiat pariatur eiusmod dolore exercitation laborum ex amet aute elit do velit est. Officia ex in Lorem anim duis excepteur commodo sit et aliqua.\r\n",
    "registered": "2017-04-10T10:59:55 -03:00",
    "tags": [
      "sint",
      "tempor",
      "sunt",
      "laboris",
      "commodo",
      "nulla",
      "eiusmod"
    ]
  },
  {
    "_id": "5cd73086b10f67246f5c4159",
    "index": 4,
    "isActive": false,
    "picture": "https://besthqwallpapers.com/Uploads/25-9-2018/66680/thumb2-tesla-model-x-novitec-2018-exterior-white-electric-car.jpg",
    "year": 1981,
    "price": 4454,
    "color": "blue",
    "carType": "Coupe",
    "title": "Selling car!",
"name": "Byers",
    "carmark": "Nissan",
    "email": "byersabbott@providco.com",
    "phone": "+1 (821) 439-3766",
    "about": "Ea ut fugiat est mollit in voluptate et nisi. Duis laborum ipsum sunt fugiat ipsum exercitation consectetur velit veniam. Dolore et deserunt incididunt incididunt.\r\n",
    "registered": "2015-03-23T01:54:26 -02:00",
    "tags": [
      "sit",
      "officia",
      "est",
      "nulla",
      "elit",
      "officia",
      "ullamco"
    ]
  },
  {
    "_id": "5cd73086e2b957411664342f",
    "index": 5,
    "isActive": false,
    "picture": "https://besthqwallpapers.com/Uploads/25-9-2018/66680/thumb2-tesla-model-x-novitec-2018-exterior-white-electric-car.jpg",
    "year": 2014,
    "price": 4439,
    "color": "green",
    "carType": "Hatch—back",
    "title": "Selling car!",
"name": "Julia",
    "carmark": "Opel",
    "email": "juliaabbott@providco.com",
    "phone": "+1 (880) 451-3064",
    "about": "Sit est aliquip amet sit reprehenderit aute ipsum nulla. Duis labore elit minim aliqua officia officia amet irure. Aliqua in quis adipisicing ut nostrud veniam voluptate consequat adipisicing consequat anim commodo. Laboris enim enim cillum minim. Proident cillum sint aute pariatur proident nisi sint do sunt ex. Fugiat sunt ex cupidatat enim proident esse et eu deserunt occaecat nulla nostrud magna eiusmod. Occaecat mollit exercitation eu quis aute aliquip deserunt sit ex occaecat nisi minim.\r\n",
    "registered": "2017-12-13T11:40:24 -02:00",
    "tags": [
      "deserunt",
      "laboris",
      "ullamco",
      "nisi",
      "anim",
      "exercitation",
      "cupidatat"
    ]
  },
  {
    "_id": "5cd73086bf4ce23e4f0caf2c",
    "index": 6,
    "isActive": true,
    "picture": "https://besthqwallpapers.com/Uploads/25-9-2018/66680/thumb2-tesla-model-x-novitec-2018-exterior-white-electric-car.jpg",
    "year": 1988,
    "price": 2549,
    "color": "blue",
    "carType": "Passenger car",
    "title": "Selling car!",
"name": "Jones",
    "carmark": "Opel",
    "email": "jonesabbott@providco.com",
    "phone": "+1 (905) 438-2185",
    "about": "Proident nulla culpa ipsum consectetur aliqua id enim sint. Consectetur qui Lorem qui ad. Ea mollit tempor est laboris deserunt anim tempor deserunt. Anim qui commodo et consequat quis eu. Ut qui nisi sint exercitation culpa minim non sit.\r\n",
    "registered": "2015-08-12T03:47:06 -03:00",
    "tags": [
      "commodo",
      "officia",
      "nisi",
      "ipsum",
      "reprehenderit",
      "irure",
      "irure"
    ]
  },
  {
    "_id": "5cd73086163e6c3fa3d94746",
    "index": 7,
    "isActive": false,
    "picture": "https://besthqwallpapers.com/Uploads/25-9-2018/66680/thumb2-tesla-model-x-novitec-2018-exterior-white-electric-car.jpg",
    "year": 2018,
    "price": 2667,
    "color": "pink",
    "carType": "Minivan",
    "title": "Selling car!",
"name": "Leanne",
    "carmark": "Mercedes",
    "email": "leanneabbott@providco.com",
    "phone": "+1 (823) 465-3994",
    "about": "Dolore officia tempor cupidatat et et tempor. Voluptate incididunt pariatur est ut. Ea ad aliquip labore duis sit commodo proident duis ex nostrud aute irure. Veniam sint excepteur aute incididunt ullamco officia eiusmod ipsum eiusmod occaecat anim amet laboris sint. Veniam consectetur ad tempor nostrud exercitation. Reprehenderit ex sunt laborum officia ad et elit fugiat pariatur.\r\n",
    "registered": "2015-08-19T09:35:40 -03:00",
    "tags": [
      "officia",
      "officia",
      "in",
      "minim",
      "ea",
      "eu",
      "magna"
    ]
  },
  {
    "_id": "5cd7308696cb064882f567be",
    "index": 8,
    "isActive": false,
    "picture": "https://besthqwallpapers.com/Uploads/25-9-2018/66680/thumb2-tesla-model-x-novitec-2018-exterior-white-electric-car.jpg",
    "year": 1995,
    "price": 2731,
    "color": "green",
    "carType": "Hybrid",
    "title": "Selling car!",
"name": "Hopkins",
    "carmark": "Nissan",
    "email": "hopkinsabbott@providco.com",
    "phone": "+1 (875) 557-3640",
    "about": "Velit enim laborum commodo in qui veniam. Aute nisi sunt esse ut ullamco non enim tempor magna. Non duis adipisicing ex tempor fugiat eiusmod aute id aliqua quis sunt non magna dolor. Dolore sit labore cillum id aute qui pariatur proident quis magna cupidatat est elit. Eu nisi tempor dolore irure. Laborum occaecat qui magna reprehenderit. Amet nostrud non adipisicing laborum incididunt incididunt culpa ex enim tempor.\r\n",
    "registered": "2015-06-17T05:10:09 -03:00",
    "tags": [
      "elit",
      "voluptate",
      "proident",
      "nulla",
      "Lorem",
      "esse",
      "magna"
    ]
  },
  {
    "_id": "5cd730869b0a700e9195f11e",
    "index": 9,
    "isActive": false,
    "picture": "https://besthqwallpapers.com/Uploads/25-9-2018/66680/thumb2-tesla-model-x-novitec-2018-exterior-white-electric-car.jpg",
    "year": 2001,
    "price": 1739,
    "color": "red",
    "carType": "Coupe",
    "title": "Selling car!",
"name": "Callie",
    "carmark": "ВАЗ",
    "email": "callieabbott@providco.com",
    "phone": "+1 (965) 475-2713",
    "about": "Enim sit qui velit dolor amet esse laborum aliquip aliqua laboris duis esse labore consectetur. Aliquip veniam proident veniam eu anim ipsum occaecat ex. Excepteur dolor exercitation exercitation nulla sunt duis excepteur sit fugiat ad duis minim irure do.\r\n",
    "registered": "2017-11-27T09:54:16 -02:00",
    "tags": [
      "do",
      "nisi",
      "incididunt",
      "consequat",
      "eu",
      "irure",
      "cupidatat"
    ]
  },
  {
    "_id": "5cd73086932e25045454c9a8",
    "index": 10,
    "isActive": true,
    "picture": "https://besthqwallpapers.com/Uploads/25-9-2018/66680/thumb2-tesla-model-x-novitec-2018-exterior-white-electric-car.jpg",
    "year": 1992,
    "price": 9357,
    "color": "black",
    "carType": "Sedan",
    "title": "Selling car!",
"name": "Lakeisha",
    "carmark": "Mazda",
    "email": "lakeishaabbott@providco.com",
    "phone": "+1 (956) 519-2353",
    "about": "Culpa do in reprehenderit labore elit sint do tempor. Dolore laborum non Lorem nostrud esse ea non sit do. Id nostrud velit esse et deserunt minim eiusmod quis commodo exercitation commodo dolore nostrud tempor. Reprehenderit nisi proident eiusmod nostrud ipsum Lorem amet quis dolore id laboris magna sunt sint. Lorem aliqua nulla pariatur exercitation. Cupidatat excepteur aliquip nulla cillum deserunt aute cillum. Do fugiat qui Lorem sit nulla cupidatat enim ipsum irure dolor.\r\n",
    "registered": "2014-07-22T03:35:35 -03:00",
    "tags": [
      "minim",
      "duis",
      "do",
      "magna",
      "duis",
      "officia",
      "eiusmod"
    ]
  },
  {
    "_id": "5cd73086124ca6f6272cd5db",
    "index": 11,
    "isActive": true,
    "picture": "https://besthqwallpapers.com/Uploads/25-9-2018/66680/thumb2-tesla-model-x-novitec-2018-exterior-white-electric-car.jpg",
    "year": 1995,
    "price": 7798,
    "color": "yellow",
    "carType": "Hatch—back",
    "title": "Selling car!",
"name": "Clarissa",
    "carmark": "Tesla",
    "email": "clarissaabbott@providco.com",
    "phone": "+1 (952) 532-2826",
    "about": "Ullamco sint irure velit mollit ex et velit consectetur enim do nisi officia. Esse irure anim ad enim culpa exercitation dolore enim consequat labore deserunt mollit. Reprehenderit deserunt dolore eu Lorem voluptate non dolore culpa exercitation. Cillum non amet mollit non voluptate ex. Consequat enim sit ut ullamco cupidatat labore consectetur consectetur veniam incididunt nostrud nostrud do. Ipsum irure cillum laboris laboris consectetur id veniam dolor id culpa do velit dolore reprehenderit. Laboris in duis fugiat est aliqua adipisicing ex sunt.\r\n",
    "registered": "2016-07-23T09:40:04 -03:00",
    "tags": [
      "ea",
      "duis",
      "mollit",
      "id",
      "duis",
      "eu",
      "est"
    ]
  },
  {
    "_id": "5cd73086a40e7316a9cc71d0",
    "index": 12,
    "isActive": true,
    "picture": "https://besthqwallpapers.com/Uploads/25-9-2018/66680/thumb2-tesla-model-x-novitec-2018-exterior-white-electric-car.jpg",
    "year": 2008,
    "price": 4274,
    "color": "blue",
    "carType": "Passenger car",
    "title": "Selling car!",
"name": "Norris",
    "carmark": "Tesla",
    "email": "norrisabbott@providco.com",
    "phone": "+1 (922) 405-3415",
    "about": "Minim sint veniam eu dolor ullamco velit eiusmod consectetur mollit cupidatat nulla aute proident. Commodo dolore qui laboris sint eiusmod incididunt duis ut mollit. Cillum velit consectetur reprehenderit esse sit dolor qui ea enim quis aliqua. Ut irure ullamco labore eiusmod.\r\n",
    "registered": "2014-11-21T02:18:44 -02:00",
    "tags": [
      "non",
      "amet",
      "ipsum",
      "laboris",
      "nisi",
      "voluptate",
      "incididunt"
    ]
  },
  {
    "_id": "5cd73086dadb6aa067ffffd5",
    "index": 13,
    "isActive": false,
    "picture": "https://besthqwallpapers.com/Uploads/25-9-2018/66680/thumb2-tesla-model-x-novitec-2018-exterior-white-electric-car.jpg",
    "year": 2012,
    "price": 2874,
    "color": "black",
    "carType": "Sedan",
    "title": "Selling car!",
"name": "Lakisha",
    "carmark": "Volkswagen",
    "email": "lakishaabbott@providco.com",
    "phone": "+1 (899) 498-3320",
    "about": "Consequat est sint culpa minim. Minim ad velit ullamco ut dolor deserunt sunt magna eu ullamco incididunt sint. Excepteur elit pariatur in minim. Consequat velit enim deserunt consequat duis eu.\r\n",
    "registered": "2016-02-06T02:34:36 -02:00",
    "tags": [
      "sunt",
      "qui",
      "aliquip",
      "anim",
      "mollit",
      "adipisicing",
      "adipisicing"
    ]
  },
  {
    "_id": "5cd73086e38b1d0a9f5005ed",
    "index": 14,
    "isActive": false,
    "picture": "https://besthqwallpapers.com/Uploads/25-9-2018/66680/thumb2-tesla-model-x-novitec-2018-exterior-white-electric-car.jpg",
    "year": 2007,
    "price": 9574,
    "color": "blue",
    "carType": "Minivan",
    "title": "Selling car!",
"name": "Roberson",
    "carmark": "Tesla",
    "email": "robersonabbott@providco.com",
    "phone": "+1 (803) 559-3893",
    "about": "Veniam fugiat qui non excepteur quis cupidatat ea do do est aliquip. Qui adipisicing cillum id laborum ipsum ea proident nostrud incididunt proident veniam ullamco. Sint proident sit proident est. Do et officia fugiat pariatur velit laborum in fugiat et exercitation. Dolore officia dolore ut id cillum eu.\r\n",
    "registered": "2017-05-11T08:37:40 -03:00",
    "tags": [
      "do",
      "consectetur",
      "tempor",
      "nostrud",
      "ullamco",
      "velit",
      "enim"
    ]
  },
  {
    "_id": "5cd73086c64c2dc425da81fb",
    "index": 15,
    "isActive": false,
    "picture": "https://besthqwallpapers.com/Uploads/25-9-2018/66680/thumb2-tesla-model-x-novitec-2018-exterior-white-electric-car.jpg",
    "year": 2006,
    "price": 2866,
    "color": "red",
    "carType": "Sedan",
    "title": "Selling car!",
"name": "Latonya",
    "carmark": "Mazda",
    "email": "latonyaabbott@providco.com",
    "phone": "+1 (822) 600-2702",
    "about": "Ullamco mollit consequat irure commodo aliqua. Culpa velit qui reprehenderit ipsum in adipisicing proident aute magna sunt incididunt commodo consequat. Est in irure excepteur cillum ipsum sit elit. Incididunt ea non quis voluptate irure. Magna incididunt dolore esse aliqua ut.\r\n",
    "registered": "2018-06-27T02:02:47 -03:00",
    "tags": [
      "id",
      "dolore",
      "sint",
      "incididunt",
      "commodo",
      "ullamco",
      "aliquip"
    ]
  },
  {
    "_id": "5cd73086d5bfbddd9005cb27",
    "index": 16,
    "isActive": false,
    "picture": "https://besthqwallpapers.com/Uploads/25-9-2018/66680/thumb2-tesla-model-x-novitec-2018-exterior-white-electric-car.jpg",
    "year": 1995,
    "price": 3589,
    "color": "brown",
    "carType": "Passenger car",
    "title": "Selling car!",
"name": "Latasha",
    "carmark": "Opel",
    "email": "latashaabbott@providco.com",
    "phone": "+1 (825) 451-3704",
    "about": "In ut deserunt cillum exercitation minim labore. Laborum dolore consectetur labore dolor in eiusmod consectetur excepteur eu. Dolore est do minim proident sit dolor officia aliquip anim esse ipsum veniam. Et deserunt voluptate commodo enim cupidatat minim qui non eiusmod ut sit culpa laboris reprehenderit. Consequat elit culpa exercitation fugiat amet laborum occaecat reprehenderit amet nisi. Id reprehenderit ipsum elit officia consectetur sunt laboris eu qui enim exercitation Lorem reprehenderit.\r\n",
    "registered": "2015-08-23T03:39:48 -03:00",
    "tags": [
      "anim",
      "anim",
      "minim",
      "sint",
      "ad",
      "ad",
      "in"
    ]
  },
  {
    "_id": "5cd730869acdc50b1a53ae79",
    "index": 17,
    "isActive": true,
    "picture": "https://besthqwallpapers.com/Uploads/25-9-2018/66680/thumb2-tesla-model-x-novitec-2018-exterior-white-electric-car.jpg",
    "year": 2016,
    "price": 9809,
    "color": "brown",
    "carType": "Sports car",
    "title": "Selling car!",
"name": "Nanette",
    "carmark": "Mercedes",
    "email": "nanetteabbott@providco.com",
    "phone": "+1 (829) 574-2261",
    "about": "Quis amet est aliquip laborum ea aliquip culpa qui id. Ea fugiat consectetur ipsum ipsum cillum ut nulla irure dolore reprehenderit sunt sit. Aliquip nisi officia occaecat mollit dolore et occaecat proident amet mollit aliqua minim deserunt sunt. Ex minim officia veniam in irure quis ut esse aliquip. Consectetur proident dolore amet excepteur eiusmod tempor exercitation est ex pariatur labore. Reprehenderit laboris consequat ad laboris ad. Et officia nulla ad ut laboris sunt cillum eiusmod dolor ea veniam occaecat adipisicing.\r\n",
    "registered": "2015-03-02T10:16:58 -02:00",
    "tags": [
      "proident",
      "amet",
      "dolore",
      "esse",
      "veniam",
      "sint",
      "occaecat"
    ]
  },
  {
    "_id": "5cd7308679b0c5bfddbc3692",
    "index": 18,
    "isActive": true,
    "picture": "https://besthqwallpapers.com/Uploads/25-9-2018/66680/thumb2-tesla-model-x-novitec-2018-exterior-white-electric-car.jpg",
    "year": 2013,
    "price": 2203,
    "color": "red",
    "carType": "Hatch—back",
    "title": "Selling car!",
"name": "Bailey",
    "carmark": "Volkswagen",
    "email": "baileyabbott@providco.com",
    "phone": "+1 (804) 571-3960",
    "about": "Non est dolor ex mollit officia officia cillum sunt. Consequat proident exercitation Lorem sit nulla nostrud tempor elit do commodo velit. Sit dolore elit qui consectetur proident eu velit dolore est do.\r\n",
    "registered": "2014-12-20T02:29:52 -02:00",
    "tags": [
      "proident",
      "in",
      "minim",
      "enim",
      "mollit",
      "tempor",
      "ut"
    ]
  },
  {
    "_id": "5cd7308681a736f8cd5991c7",
    "index": 19,
    "isActive": true,
    "picture": "https://besthqwallpapers.com/Uploads/25-9-2018/66680/thumb2-tesla-model-x-novitec-2018-exterior-white-electric-car.jpg",
    "year": 1988,
    "price": 7897,
    "color": "yellow",
    "carType": "Passenger car",
    "title": "Selling car!",
"name": "Mai",
    "carmark": "ВАЗ",
    "email": "maiabbott@providco.com",
    "phone": "+1 (957) 429-2269",
    "about": "Exercitation eu ea anim pariatur. Magna aute esse veniam incididunt sint culpa officia laborum. Sunt aliquip consectetur nisi exercitation laboris. Excepteur velit aute irure qui officia sunt laboris nostrud ex aliqua excepteur magna adipisicing esse.\r\n",
    "registered": "2015-12-27T07:09:31 -02:00",
    "tags": [
      "consectetur",
      "irure",
      "culpa",
      "duis",
      "dolore",
      "et",
      "Lorem"
    ]
  },
  {
    "_id": "5cd7308641442221f95324d7",
    "index": 20,
    "isActive": true,
    "picture": "https://besthqwallpapers.com/Uploads/25-9-2018/66680/thumb2-tesla-model-x-novitec-2018-exterior-white-electric-car.jpg",
    "year": 2009,
    "price": 2053,
    "color": "black",
    "carType": "Hybrid",
    "title": "Selling car!",
"name": "Kirkland",
    "carmark": "Volkswagen",
    "email": "kirklandabbott@providco.com",
    "phone": "+1 (872) 442-3036",
    "about": "Veniam nulla consectetur id ipsum cupidatat. Tempor ipsum sunt sunt velit mollit ea anim laboris sit ea ex labore minim. Aute excepteur adipisicing irure sint do reprehenderit sunt deserunt laborum tempor ipsum consectetur consectetur eu.\r\n",
    "registered": "2017-03-31T11:29:53 -03:00",
    "tags": [
      "deserunt",
      "officia",
      "id",
      "Lorem",
      "qui",
      "in",
      "excepteur"
    ]
  },
  {
    "_id": "5cd73086b0ee58e8ffb376db",
    "index": 21,
    "isActive": true,
    "picture": "https://besthqwallpapers.com/Uploads/25-9-2018/66680/thumb2-tesla-model-x-novitec-2018-exterior-white-electric-car.jpg",
    "year": 1988,
    "price": 780,
    "color": "brown",
    "carType": "Passenger car",
    "title": "Selling car!",
"name": "Catherine",
    "carmark": "Huyndai",
    "email": "catherineabbott@providco.com",
    "phone": "+1 (928) 540-3172",
    "about": "Ea in irure duis et id elit anim duis aliqua enim id velit aliqua anim. Excepteur in ut laborum culpa est nisi culpa cupidatat magna nisi laborum. Duis est eiusmod ullamco ex fugiat nulla ea. Sit do velit laborum ullamco ea Lorem est sunt anim incididunt quis. Nostrud aute fugiat laboris mollit ad velit in sunt mollit proident excepteur reprehenderit. Occaecat duis Lorem ad ea voluptate.\r\n",
    "registered": "2014-04-04T08:04:52 -03:00",
    "tags": [
      "ut",
      "voluptate",
      "ut",
      "duis",
      "laborum",
      "eiusmod",
      "sint"
    ]
  },
  {
    "_id": "5cd73086ce731c3d2b3b195a",
    "index": 22,
    "isActive": false,
    "picture": "https://besthqwallpapers.com/Uploads/25-9-2018/66680/thumb2-tesla-model-x-novitec-2018-exterior-white-electric-car.jpg",
    "year": 2008,
    "price": 3184,
    "color": "blue",
    "carType": "Passenger car",
    "title": "Selling car!",
"name": "Morrison",
    "carmark": "BMW",
    "email": "morrisonabbott@providco.com",
    "phone": "+1 (872) 447-3246",
    "about": "Aliquip do incididunt occaecat culpa. Nisi Lorem adipisicing qui incididunt. Proident dolore id ea velit eu exercitation laboris esse aliquip elit voluptate. Nostrud ullamco deserunt duis dolor. In do ex laboris laborum deserunt dolore laborum dolor esse do.\r\n",
    "registered": "2016-06-29T10:06:48 -03:00",
    "tags": [
      "do",
      "quis",
      "aute",
      "dolore",
      "irure",
      "laboris",
      "irure"
    ]
  },
  {
    "_id": "5cd7308669a9a88a5265487b",
    "index": 23,
    "isActive": true,
    "picture": "https://besthqwallpapers.com/Uploads/25-9-2018/66680/thumb2-tesla-model-x-novitec-2018-exterior-white-electric-car.jpg",
    "year": 2017,
    "price": 412,
    "color": "yellow",
    "carType": "Passenger car",
    "title": "Selling car!",
"name": "Odonnell",
    "carmark": "Volkswagen",
    "email": "odonnellabbott@providco.com",
    "phone": "+1 (855) 561-2403",
    "about": "Culpa voluptate sunt ex proident aliquip voluptate aliqua. Occaecat elit ipsum deserunt ut Lorem. Enim mollit commodo commodo nisi. Incididunt quis velit proident mollit proident nulla in mollit excepteur minim veniam consectetur laborum anim. Duis ut id irure eu deserunt sunt culpa sit sint nostrud adipisicing fugiat laboris laborum.\r\n",
    "registered": "2017-02-18T03:46:34 -02:00",
    "tags": [
      "sunt",
      "et",
      "amet",
      "mollit",
      "do",
      "id",
      "quis"
    ]
  },
  {
    "_id": "5cd73086431a83cec9da0b60",
    "index": 24,
    "isActive": true,
    "picture": "https://besthqwallpapers.com/Uploads/25-9-2018/66680/thumb2-tesla-model-x-novitec-2018-exterior-white-electric-car.jpg",
    "year": 2014,
    "price": 1296,
    "color": "yellow",
    "carType": "Hatch—back",
    "title": "Selling car!",
"name": "Yesenia",
    "carmark": "Mazda",
    "email": "yeseniaabbott@providco.com",
    "phone": "+1 (838) 426-3084",
    "about": "Cillum eu quis esse fugiat cillum fugiat deserunt consectetur adipisicing Lorem. Duis ex ad qui ea cupidatat mollit non consequat ad aliquip. Eiusmod excepteur veniam minim sunt ex sit elit elit magna. Eu nulla magna laborum tempor. Dolore aute culpa Lorem aliquip minim sint irure nostrud minim incididunt. Mollit esse enim sunt quis sint proident.\r\n",
    "registered": "2017-01-19T08:39:23 -02:00",
    "tags": [
      "culpa",
      "reprehenderit",
      "aliquip",
      "laboris",
      "non",
      "enim",
      "tempor"
    ]
  },
  {
    "_id": "5cd7308626f603d666ed914c",
    "index": 25,
    "isActive": true,
    "picture": "https://besthqwallpapers.com/Uploads/25-9-2018/66680/thumb2-tesla-model-x-novitec-2018-exterior-white-electric-car.jpg",
    "year": 2003,
    "price": 9297,
    "color": "pink",
    "carType": "Hatch—back",
    "title": "Selling car!",
"name": "Rivera",
    "carmark": "Mazda",
    "email": "riveraabbott@providco.com",
    "phone": "+1 (928) 470-3557",
    "about": "Quis tempor enim reprehenderit occaecat consectetur proident aliquip ex ad. Velit laboris nostrud quis velit duis incididunt aute eu ex voluptate ut anim in. Lorem qui laborum ad laborum occaecat consectetur veniam dolore pariatur.\r\n",
    "registered": "2016-12-26T08:11:16 -02:00",
    "tags": [
      "dolor",
      "anim",
      "aliqua",
      "non",
      "et",
      "esse",
      "nulla"
    ]
  },
  {
    "_id": "5cd73086727f20b7f542b262",
    "index": 26,
    "isActive": false,
    "picture": "https://besthqwallpapers.com/Uploads/25-9-2018/66680/thumb2-tesla-model-x-novitec-2018-exterior-white-electric-car.jpg",
    "year": 2008,
    "price": 5465,
    "color": "pink",
    "carType": "Coupe",
    "title": "Selling car!",
"name": "Hoffman",
    "carmark": "Chevrolet",
    "email": "hoffmanabbott@providco.com",
    "phone": "+1 (830) 511-3595",
    "about": "Minim non aute consequat anim tempor commodo dolore eiusmod proident irure tempor. Mollit elit consectetur do dolor consectetur ut in tempor aliqua ea. Est deserunt sint labore dolore et incididunt qui Lorem duis cillum incididunt. Quis in non aliqua duis cillum deserunt dolore est officia exercitation est incididunt.\r\n",
    "registered": "2014-11-25T02:49:08 -02:00",
    "tags": [
      "minim",
      "laborum",
      "non",
      "dolore",
      "id",
      "esse",
      "eiusmod"
    ]
  },
  {
    "_id": "5cd73086a8c371816034a497",
    "index": 27,
    "isActive": true,
    "picture": "https://besthqwallpapers.com/Uploads/25-9-2018/66680/thumb2-tesla-model-x-novitec-2018-exterior-white-electric-car.jpg",
    "year": 2016,
    "price": 1668,
    "color": "yellow",
    "carType": "Passenger car",
    "title": "Selling car!",
"name": "Hood",
    "carmark": "Mercedes",
    "email": "hoodabbott@providco.com",
    "phone": "+1 (937) 536-2681",
    "about": "Lorem est ex aute veniam laborum deserunt sunt laboris consequat mollit dolore dolor. Lorem irure labore do aliqua mollit dolore nostrud enim commodo. Excepteur reprehenderit elit commodo veniam dolore mollit esse non voluptate duis et consectetur. Elit commodo non sit consequat occaecat. Aute nisi elit aliqua adipisicing nostrud. Elit reprehenderit anim nostrud anim ad.\r\n",
    "registered": "2016-04-24T11:19:57 -03:00",
    "tags": [
      "consectetur",
      "laborum",
      "non",
      "occaecat",
      "proident",
      "reprehenderit",
      "proident"
    ]
  },
  {
    "_id": "5cd73086759d10b27c965153",
    "index": 28,
    "isActive": true,
    "picture": "https://besthqwallpapers.com/Uploads/25-9-2018/66680/thumb2-tesla-model-x-novitec-2018-exterior-white-electric-car.jpg",
    "year": 1984,
    "price": 1257,
    "color": "black",
    "carType": "Coupe",
    "title": "Selling car!",
"name": "Earline",
    "carmark": "BMW",
    "email": "earlineabbott@providco.com",
    "phone": "+1 (919) 486-2155",
    "about": "Tempor dolore eu nostrud aute in sint ad elit. Aute commodo officia sit dolore sint consectetur aliquip cillum consectetur velit id minim. Cupidatat ex velit amet et mollit. Tempor in minim occaecat officia amet. Aute dolore eu velit culpa veniam nisi.\r\n",
    "registered": "2019-01-10T11:27:12 -02:00",
    "tags": [
      "voluptate",
      "ut",
      "sint",
      "anim",
      "aute",
      "amet",
      "Lorem"
    ]
  },
  {
    "_id": "5cd7308613004378b625458e",
    "index": 29,
    "isActive": true,
    "picture": "https://besthqwallpapers.com/Uploads/25-9-2018/66680/thumb2-tesla-model-x-novitec-2018-exterior-white-electric-car.jpg",
    "year": 1988,
    "price": 4220,
    "color": "black",
    "carType": "Sedan",
    "title": "Selling car!",
"name": "Crawford",
    "carmark": "Volkswagen",
    "email": "crawfordabbott@providco.com",
    "phone": "+1 (998) 461-3286",
    "about": "Veniam et cupidatat tempor officia pariatur do. Ea enim quis eu amet. Aliqua exercitation sunt ea ullamco occaecat in laboris sint qui. Cillum voluptate dolore laboris ullamco et ullamco ex anim reprehenderit officia Lorem eiusmod.\r\n",
    "registered": "2015-09-30T10:39:32 -03:00",
    "tags": [
      "adipisicing",
      "Lorem",
      "ut",
      "amet",
      "minim",
      "amet",
      "eiusmod"
    ]
  },
  {
    "_id": "5cd73086891deb42e3da7a9f",
    "index": 30,
    "isActive": true,
    "picture": "https://besthqwallpapers.com/Uploads/25-9-2018/66680/thumb2-tesla-model-x-novitec-2018-exterior-white-electric-car.jpg",
    "year": 2012,
    "price": 2308,
    "color": "black",
    "carType": "Minivan",
    "title": "Selling car!",
"name": "Blackburn",
    "carmark": "Chevrolet",
    "email": "blackburnabbott@providco.com",
    "phone": "+1 (818) 564-2496",
    "about": "Reprehenderit minim nisi dolore laborum veniam aliqua dolore ut ullamco ex. Occaecat laboris velit reprehenderit exercitation anim ullamco fugiat ipsum ad officia consectetur. Minim eu est ea velit. Quis labore ullamco ullamco laborum est velit. Magna non irure laborum aliqua quis consectetur aliqua dolore dolore anim duis. Anim ex do nisi exercitation reprehenderit veniam ea.\r\n",
    "registered": "2019-01-18T03:37:08 -02:00",
    "tags": [
      "elit",
      "aute",
      "quis",
      "dolore",
      "ad",
      "dolor",
      "nulla"
    ]
  },
  {
    "_id": "5cd7308657a21c278634294b",
    "index": 31,
    "isActive": true,
    "picture": "https://besthqwallpapers.com/Uploads/25-9-2018/66680/thumb2-tesla-model-x-novitec-2018-exterior-white-electric-car.jpg",
    "year": 2017,
    "price": 4377,
    "color": "yellow",
    "carType": "Sports car",
    "title": "Selling car!",
"name": "Herman",
    "carmark": "Mercedes",
    "email": "hermanabbott@providco.com",
    "phone": "+1 (954) 436-2736",
    "about": "Pariatur magna occaecat ipsum duis est mollit eiusmod officia. Est nisi dolore incididunt dolore. Fugiat ad ut consectetur nisi cupidatat tempor incididunt ex ut aute labore. Quis enim ut Lorem eiusmod deserunt occaecat. Dolor voluptate cupidatat ad enim est ullamco occaecat veniam nulla minim elit eiusmod pariatur voluptate.\r\n",
    "registered": "2018-11-05T11:20:31 -02:00",
    "tags": [
      "aliquip",
      "nulla",
      "qui",
      "labore",
      "deserunt",
      "irure",
      "incididunt"
    ]
  },
  {
    "_id": "5cd73086700d10b32e76d8ea",
    "index": 32,
    "isActive": true,
    "picture": "https://besthqwallpapers.com/Uploads/25-9-2018/66680/thumb2-tesla-model-x-novitec-2018-exterior-white-electric-car.jpg",
    "year": 1994,
    "price": 3111,
    "color": "black",
    "carType": "Hybrid",
    "title": "Selling car!",
"name": "Morin",
    "carmark": "ВАЗ",
    "email": "morinabbott@providco.com",
    "phone": "+1 (823) 417-3138",
    "about": "Aliqua pariatur commodo cillum duis dolor consectetur exercitation. Quis minim enim proident enim elit aliquip dolore eu fugiat ea tempor aliqua aliquip ullamco. Cupidatat veniam velit ea sunt tempor id sunt excepteur deserunt dolore proident. Cillum aute anim aliqua proident aliquip. Aute duis cillum est irure amet esse et laborum reprehenderit minim. Tempor cupidatat eu fugiat sint proident exercitation nulla esse.\r\n",
    "registered": "2017-09-22T12:40:10 -03:00",
    "tags": [
      "officia",
      "exercitation",
      "id",
      "do",
      "aliqua",
      "esse",
      "eu"
    ]
  },
  {
    "_id": "5cd73086bbb18cf68faa9d16",
    "index": 33,
    "isActive": false,
    "picture": "https://besthqwallpapers.com/Uploads/25-9-2018/66680/thumb2-tesla-model-x-novitec-2018-exterior-white-electric-car.jpg",
    "year": 2013,
    "price": 7185,
    "color": "pink",
    "carType": "Sedan",
    "title": "Selling car!",
"name": "Lara",
    "carmark": "Huyndai",
    "email": "laraabbott@providco.com",
    "phone": "+1 (986) 554-3192",
    "about": "Sint incididunt excepteur velit tempor amet nostrud mollit nulla sunt occaecat. Aliquip sunt aute adipisicing et mollit amet deserunt commodo tempor anim. Ad in eiusmod esse amet nulla esse exercitation nisi. Mollit eu est velit mollit sunt. Sint sit labore eu commodo fugiat laborum exercitation.\r\n",
    "registered": "2014-03-11T02:39:15 -02:00",
    "tags": [
      "aliquip",
      "excepteur",
      "deserunt",
      "voluptate",
      "reprehenderit",
      "enim",
      "sit"
    ]
  },
  {
    "_id": "5cd73086a60308be8c62adf3",
    "index": 34,
    "isActive": true,
    "picture": "https://besthqwallpapers.com/Uploads/25-9-2018/66680/thumb2-tesla-model-x-novitec-2018-exterior-white-electric-car.jpg",
    "year": 2001,
    "price": 6144,
    "color": "black",
    "carType": "Sedan",
    "title": "Selling car!",
"name": "Grant",
    "carmark": "Huyndai",
    "email": "grantabbott@providco.com",
    "phone": "+1 (800) 519-3041",
    "about": "Amet cupidatat mollit aliquip ut in incididunt cillum nostrud anim magna est velit amet ullamco. Est sunt consectetur id nisi ullamco velit eu sit magna sint. Cillum velit dolor ullamco commodo et laborum occaecat dolor velit. Labore laboris ut sit ea excepteur ullamco ullamco sint amet esse nostrud. Ea veniam velit et ea esse consequat irure non exercitation tempor officia reprehenderit quis. Eu consectetur amet do velit sunt occaecat eiusmod.\r\n",
    "registered": "2018-09-24T11:44:58 -03:00",
    "tags": [
      "officia",
      "tempor",
      "do",
      "deserunt",
      "fugiat",
      "est",
      "aute"
    ]
  },
  {
    "_id": "5cd730866090dd746163c6ea",
    "index": 35,
    "isActive": false,
    "picture": "https://besthqwallpapers.com/Uploads/25-9-2018/66680/thumb2-tesla-model-x-novitec-2018-exterior-white-electric-car.jpg",
    "year": 1987,
    "price": 4965,
    "color": "yellow",
    "carType": "Hatch—back",
    "title": "Selling car!",
"name": "Gina",
    "carmark": "Mercedes",
    "email": "ginaabbott@providco.com",
    "phone": "+1 (857) 452-3420",
    "about": "Labore elit ullamco fugiat do fugiat magna. Enim do qui tempor sunt elit sit et reprehenderit commodo. Id ut laborum ut pariatur sunt cupidatat dolor pariatur officia laborum dolore aliqua esse. Voluptate labore non labore consectetur ad Lorem esse non cillum ad consequat.\r\n",
    "registered": "2016-09-08T07:40:38 -03:00",
    "tags": [
      "occaecat",
      "reprehenderit",
      "nostrud",
      "labore",
      "in",
      "cillum",
      "sint"
    ]
  },
  {
    "_id": "5cd730860ed7fe5056c011aa",
    "index": 36,
    "isActive": false,
    "picture": "https://besthqwallpapers.com/Uploads/25-9-2018/66680/thumb2-tesla-model-x-novitec-2018-exterior-white-electric-car.jpg",
    "year": 1996,
    "price": 5810,
    "color": "red",
    "carType": "Passenger car",
    "title": "Selling car!",
"name": "Dillon",
    "carmark": "Mercedes",
    "email": "dillonabbott@providco.com",
    "phone": "+1 (852) 470-2200",
    "about": "Aliqua aliquip adipisicing esse fugiat pariatur. Elit ullamco ea irure proident nisi pariatur mollit est. Excepteur est ad nostrud in adipisicing veniam. Do nisi quis id sint eiusmod. Ad dolor cillum irure laboris nulla aute.\r\n",
    "registered": "2014-12-01T09:47:05 -02:00",
    "tags": [
      "nulla",
      "laboris",
      "deserunt",
      "dolore",
      "duis",
      "cupidatat",
      "do"
    ]
  },
  {
    "_id": "5cd73086d26dbb700d1946d6",
    "index": 37,
    "isActive": true,
    "picture": "https://besthqwallpapers.com/Uploads/25-9-2018/66680/thumb2-tesla-model-x-novitec-2018-exterior-white-electric-car.jpg",
    "year": 2011,
    "price": 4988,
    "color": "brown",
    "carType": "Minivan",
    "title": "Selling car!",
"name": "Sargent",
    "carmark": "Huyndai",
    "email": "sargentabbott@providco.com",
    "phone": "+1 (933) 518-2991",
    "about": "Tempor Lorem anim enim officia est aliquip amet elit. Sit officia velit incididunt nostrud laborum amet id eu commodo aute ea elit. Ipsum dolor et commodo minim minim elit ullamco ut ea sit esse.\r\n",
    "registered": "2015-01-11T04:20:20 -02:00",
    "tags": [
      "labore",
      "ipsum",
      "exercitation",
      "velit",
      "eu",
      "fugiat",
      "velit"
    ]
  },
  {
    "_id": "5cd73086a4a9789b82788a26",
    "index": 38,
    "isActive": false,
    "picture": "https://besthqwallpapers.com/Uploads/25-9-2018/66680/thumb2-tesla-model-x-novitec-2018-exterior-white-electric-car.jpg",
    "year": 1986,
    "price": 8936,
    "color": "brown",
    "carType": "Hatch—back",
    "title": "Selling car!",
"name": "Hattie",
    "carmark": "Nissan",
    "email": "hattieabbott@providco.com",
    "phone": "+1 (875) 593-3891",
    "about": "Voluptate aute consectetur aliquip amet consequat elit culpa consequat. Lorem nisi elit sint fugiat ex id deserunt cupidatat. Labore in ipsum laboris proident reprehenderit mollit sint aliquip. Irure in esse elit exercitation ex in sunt do sunt eiusmod in est fugiat excepteur. Amet ipsum dolor aute ipsum consequat cupidatat nostrud laboris adipisicing. Ut elit culpa nostrud tempor laborum.\r\n",
    "registered": "2016-05-10T02:03:37 -03:00",
    "tags": [
      "magna",
      "ad",
      "nostrud",
      "deserunt",
      "aute",
      "esse",
      "sint"
    ]
  },
  {
    "_id": "5cd7308664ee97b05bbf7b9c",
    "index": 39,
    "isActive": true,
    "picture": "https://besthqwallpapers.com/Uploads/25-9-2018/66680/thumb2-tesla-model-x-novitec-2018-exterior-white-electric-car.jpg",
    "year": 1981,
    "price": 1811,
    "color": "pink",
    "carType": "Sedan",
    "title": "Selling car!",
"name": "Beach",
    "carmark": "Huyndai",
    "email": "beachabbott@providco.com",
    "phone": "+1 (910) 539-3239",
    "about": "Mollit magna labore eiusmod sit laborum ea laborum pariatur do non consequat nulla nostrud fugiat. Laboris eu dolor ipsum nulla consequat. Amet dolor ex enim ut aliquip ipsum officia nostrud veniam nulla elit est enim. Ut enim qui sunt est nisi quis pariatur reprehenderit enim minim reprehenderit consequat sint. Tempor laborum duis labore amet. Laborum fugiat commodo aliquip excepteur sit qui do sunt non Lorem ex fugiat cupidatat.\r\n",
    "registered": "2019-04-14T05:10:58 -03:00",
    "tags": [
      "sit",
      "velit",
      "do",
      "ad",
      "nisi",
      "officia",
      "aliquip"
    ]
  },
  {
    "_id": "5cd7308680fdd36b2d43b023",
    "index": 40,
    "isActive": true,
    "picture": "https://besthqwallpapers.com/Uploads/25-9-2018/66680/thumb2-tesla-model-x-novitec-2018-exterior-white-electric-car.jpg",
    "year": 2007,
    "price": 1735,
    "color": "blue",
    "carType": "Minivan",
    "title": "Selling car!",
"name": "Manning",
    "carmark": "Nissan",
    "email": "manningabbott@providco.com",
    "phone": "+1 (832) 457-2750",
    "about": "Lorem ipsum labore consectetur excepteur cupidatat culpa sunt labore excepteur. Deserunt sit quis ullamco ex sint. Elit amet ullamco irure ipsum culpa labore minim incididunt magna eu. Do laboris incididunt elit nisi minim cupidatat eu eiusmod ex ad ex.\r\n",
    "registered": "2018-12-15T08:10:29 -02:00",
    "tags": [
      "anim",
      "reprehenderit",
      "non",
      "nostrud",
      "non",
      "enim",
      "sunt"
    ]
  },
  {
    "_id": "5cd730866541cd8f9d4ee308",
    "index": 41,
    "isActive": true,
    "picture": "https://besthqwallpapers.com/Uploads/25-9-2018/66680/thumb2-tesla-model-x-novitec-2018-exterior-white-electric-car.jpg",
    "year": 2013,
    "price": 4249,
    "color": "green",
    "carType": "Passenger car",
    "title": "Selling car!",
"name": "Violet",
    "carmark": "Opel",
    "email": "violetabbott@providco.com",
    "phone": "+1 (925) 504-3918",
    "about": "Irure anim ut ipsum irure eiusmod adipisicing minim labore in laboris reprehenderit. Reprehenderit esse aliqua ut proident commodo laboris et magna irure ut quis dolore reprehenderit aliqua. Mollit est duis dolore ad amet. Cillum nisi cillum magna tempor elit et eu ea qui.\r\n",
    "registered": "2015-12-23T07:17:00 -02:00",
    "tags": [
      "excepteur",
      "pariatur",
      "Lorem",
      "velit",
      "aliquip",
      "exercitation",
      "ut"
    ]
  },
  {
    "_id": "5cd73087edff92b936c568cb",
    "index": 42,
    "isActive": false,
    "picture": "https://besthqwallpapers.com/Uploads/25-9-2018/66680/thumb2-tesla-model-x-novitec-2018-exterior-white-electric-car.jpg",
    "year": 1996,
    "price": 4158,
    "color": "brown",
    "carType": "Coupe",
    "title": "Selling car!",
"name": "Rosales",
    "carmark": "Mercedes",
    "email": "rosalesabbott@providco.com",
    "phone": "+1 (890) 572-2933",
    "about": "Non eu amet reprehenderit quis reprehenderit deserunt duis aliquip exercitation deserunt ad magna dolor. Fugiat eu Lorem sint nulla voluptate consectetur exercitation quis. Ex aliquip occaecat labore deserunt in culpa laboris reprehenderit laborum laboris exercitation. Nisi pariatur proident reprehenderit qui elit dolor et reprehenderit aliqua mollit. Ipsum sit commodo nostrud magna veniam non aliqua excepteur minim elit in nisi adipisicing non. Fugiat aliquip id et deserunt fugiat sunt incididunt laborum incididunt ex qui nostrud.\r\n",
    "registered": "2017-07-05T06:01:58 -03:00",
    "tags": [
      "labore",
      "consectetur",
      "culpa",
      "anim",
      "nulla",
      "cillum",
      "dolor"
    ]
  },
  {
    "_id": "5cd73087ae68f1e35b3a2aae",
    "index": 43,
    "isActive": false,
    "picture": "https://besthqwallpapers.com/Uploads/25-9-2018/66680/thumb2-tesla-model-x-novitec-2018-exterior-white-electric-car.jpg",
    "year": 1990,
    "price": 9610,
    "color": "blue",
    "carType": "Minivan",
    "title": "Selling car!",
"name": "Bethany",
    "carmark": "Tesla",
    "email": "bethanyabbott@providco.com",
    "phone": "+1 (869) 520-2760",
    "about": "Elit cupidatat culpa ad dolore eiusmod ad aliqua est. Incididunt fugiat dolor aliquip enim nulla elit et mollit reprehenderit esse elit. Elit Lorem fugiat qui non nulla velit enim sit. Sit irure fugiat tempor sint aliqua excepteur sit do laborum in in nostrud. Officia in ad nisi proident. Exercitation sint labore elit incididunt est cillum reprehenderit sit pariatur id officia amet voluptate.\r\n",
    "registered": "2017-11-15T05:39:33 -02:00",
    "tags": [
      "proident",
      "enim",
      "id",
      "Lorem",
      "proident",
      "sit",
      "aliqua"
    ]
  },
  {
    "_id": "5cd730874c66633dd2718330",
    "index": 44,
    "isActive": false,
    "picture": "https://besthqwallpapers.com/Uploads/25-9-2018/66680/thumb2-tesla-model-x-novitec-2018-exterior-white-electric-car.jpg",
    "year": 1992,
    "price": 7736,
    "color": "red",
    "carType": "Hybrid",
    "title": "Selling car!",
"name": "Sandoval",
    "carmark": "Opel",
    "email": "sandovalabbott@providco.com",
    "phone": "+1 (910) 411-2538",
    "about": "Excepteur incididunt irure commodo officia et minim eiusmod deserunt. Commodo id labore tempor ex officia consectetur mollit eiusmod ad aute duis. Dolore veniam mollit est tempor laborum. Elit anim excepteur eiusmod officia pariatur Lorem in est incididunt.\r\n",
    "registered": "2017-08-28T06:27:51 -03:00",
    "tags": [
      "nostrud",
      "in",
      "ut",
      "pariatur",
      "irure",
      "tempor",
      "commodo"
    ]
  },
  {
    "_id": "5cd73087c15b8d8813130d69",
    "index": 45,
    "isActive": false,
    "picture": "https://besthqwallpapers.com/Uploads/25-9-2018/66680/thumb2-tesla-model-x-novitec-2018-exterior-white-electric-car.jpg",
    "year": 2006,
    "price": 5637,
    "color": "yellow",
    "carType": "Sedan",
    "title": "Selling car!",
"name": "Quinn",
    "carmark": "Tesla",
    "email": "quinnabbott@providco.com",
    "phone": "+1 (969) 493-3741",
    "about": "Aliquip officia nulla culpa qui aliquip tempor ex exercitation ipsum ex nostrud voluptate proident. Sint id quis ipsum qui ex laboris eiusmod qui ad aliqua officia nulla. Quis sunt ad ad nisi duis eiusmod dolore. Labore nulla voluptate et aute pariatur aliqua in anim pariatur. Nisi elit aliqua mollit occaecat proident cillum fugiat sint exercitation ullamco. Veniam laboris esse ullamco ut incididunt. Duis et nulla velit consequat aliquip irure.\r\n",
    "registered": "2016-04-17T04:02:14 -03:00",
    "tags": [
      "incididunt",
      "id",
      "do",
      "reprehenderit",
      "et",
      "ut",
      "officia"
    ]
  },
  {
    "_id": "5cd73087f38bf9ed0974b9a3",
    "index": 46,
    "isActive": true,
    "picture": "https://besthqwallpapers.com/Uploads/25-9-2018/66680/thumb2-tesla-model-x-novitec-2018-exterior-white-electric-car.jpg",
    "year": 2009,
    "price": 8047,
    "color": "yellow",
    "carType": "Sports car",
    "title": "Selling car!",
"name": "Myra",
    "carmark": "Mercedes",
    "email": "myraabbott@providco.com",
    "phone": "+1 (941) 469-3812",
    "about": "Aliqua Lorem est tempor fugiat fugiat occaecat magna id culpa ipsum proident nostrud. Quis laborum in nostrud incididunt labore laboris ex consectetur elit. Ex mollit non occaecat exercitation.\r\n",
    "registered": "2014-03-06T02:49:43 -02:00",
    "tags": [
      "occaecat",
      "incididunt",
      "laboris",
      "veniam",
      "fugiat",
      "adipisicing",
      "pariatur"
    ]
  },
  {
    "_id": "5cd730870fa684d7fbb924bc",
    "index": 47,
    "isActive": true,
    "picture": "https://besthqwallpapers.com/Uploads/25-9-2018/66680/thumb2-tesla-model-x-novitec-2018-exterior-white-electric-car.jpg",
    "year": 2007,
    "price": 8079,
    "color": "blue",
    "carType": "Hybrid",
    "title": "Selling car!",
"name": "Joanne",
    "carmark": "Opel",
    "email": "joanneabbott@providco.com",
    "phone": "+1 (814) 458-2126",
    "about": "Mollit cupidatat ullamco cillum aliqua et quis voluptate nostrud. Id id ut cillum laboris exercitation id aliquip occaecat quis pariatur cillum nisi amet exercitation. Veniam cupidatat veniam ipsum aliquip adipisicing. Reprehenderit irure nisi ut eu mollit officia ut cillum.\r\n",
    "registered": "2014-02-07T11:26:25 -02:00",
    "tags": [
      "irure",
      "amet",
      "minim",
      "non",
      "nostrud",
      "id",
      "officia"
    ]
  },
  {
    "_id": "5cd7308733529b0f79c314ec",
    "index": 48,
    "isActive": false,
    "picture": "https://besthqwallpapers.com/Uploads/25-9-2018/66680/thumb2-tesla-model-x-novitec-2018-exterior-white-electric-car.jpg",
    "year": 2011,
    "price": 8554,
    "color": "blue",
    "carType": "Hybrid",
    "title": "Selling car!",
"name": "Marcella",
    "carmark": "Opel",
    "email": "marcellaabbott@providco.com",
    "phone": "+1 (989) 542-3467",
    "about": "Sint anim exercitation et enim laborum eu culpa cillum veniam reprehenderit quis sint. Enim consequat sint irure esse in consequat sint proident culpa cupidatat ad anim ad. Cillum duis nostrud labore quis. Esse id aute laboris id esse duis. Esse nisi eiusmod id eu est incididunt do sit exercitation ex eiusmod laborum. Aliquip fugiat fugiat magna laborum laboris ad duis incididunt. Quis minim laborum elit consequat voluptate.\r\n",
    "registered": "2019-03-02T08:06:54 -02:00",
    "tags": [
      "dolor",
      "elit",
      "occaecat",
      "proident",
      "ea",
      "veniam",
      "do"
    ]
  },
  {
    "_id": "5cd730877c0df8c9b1b40937",
    "index": 49,
    "isActive": false,
    "picture": "https://besthqwallpapers.com/Uploads/25-9-2018/66680/thumb2-tesla-model-x-novitec-2018-exterior-white-electric-car.jpg",
    "year": 2012,
    "price": 635,
    "color": "blue",
    "carType": "Passenger car",
    "title": "Selling car!",
"name": "Nelda",
    "carmark": "Mazda",
    "email": "neldaabbott@providco.com",
    "phone": "+1 (845) 431-3403",
    "about": "Dolore eu pariatur sunt pariatur. In amet magna ipsum do reprehenderit Lorem cupidatat. Ex excepteur magna amet culpa ullamco duis voluptate tempor cupidatat excepteur enim. Aliqua voluptate Lorem non eu et magna ipsum est consectetur Lorem pariatur enim excepteur. Elit et exercitation duis cupidatat ipsum consectetur enim ullamco.\r\n",
    "registered": "2016-06-06T10:20:19 -03:00",
    "tags": [
      "velit",
      "qui",
      "consectetur",
      "sunt",
      "exercitation",
      "amet",
      "cupidatat"
    ]
  },
  {
    "_id": "5cd73087ffaa49d08155fad7",
    "index": 50,
    "isActive": true,
    "picture": "https://besthqwallpapers.com/Uploads/25-9-2018/66680/thumb2-tesla-model-x-novitec-2018-exterior-white-electric-car.jpg",
    "year": 1990,
    "price": 9354,
    "color": "brown",
    "carType": "Minivan",
    "title": "Selling car!",
"name": "Santiago",
    "carmark": "Huyndai",
    "email": "santiagoabbott@providco.com",
    "phone": "+1 (812) 433-3008",
    "about": "Veniam occaecat eiusmod nisi exercitation aliquip enim do pariatur. Dolore est quis dolore in proident dolore adipisicing. Esse ut irure qui veniam in. Id duis quis elit ea. Reprehenderit et et laborum commodo sit labore officia est labore fugiat ipsum anim aliqua. Eu elit laborum Lorem adipisicing enim exercitation commodo id. Nostrud ullamco non esse eu deserunt fugiat magna minim consequat in consectetur dolor ut minim.\r\n",
    "registered": "2016-03-16T12:08:58 -02:00",
    "tags": [
      "consequat",
      "ad",
      "in",
      "ex",
      "minim",
      "occaecat",
      "ut"
    ]
  },
  {
    "_id": "5cd73087753d293e1e30d82f",
    "index": 51,
    "isActive": false,
    "picture": "https://besthqwallpapers.com/Uploads/25-9-2018/66680/thumb2-tesla-model-x-novitec-2018-exterior-white-electric-car.jpg",
    "year": 1987,
    "price": 280,
    "color": "brown",
    "carType": "Sedan",
    "title": "Selling car!",
"name": "Clemons",
    "carmark": "Nissan",
    "email": "clemonsabbott@providco.com",
    "phone": "+1 (967) 469-3151",
    "about": "Ipsum labore nostrud ad fugiat in quis. Labore ullamco Lorem voluptate ut consequat adipisicing excepteur occaecat nostrud fugiat aliqua reprehenderit. Officia sunt dolor nostrud in enim nisi ad consectetur sit nostrud minim magna ea ad. Duis labore in cillum magna deserunt aliqua dolor aliqua aliquip ullamco nisi tempor sint consequat.\r\n",
    "registered": "2018-11-28T09:35:25 -02:00",
    "tags": [
      "dolore",
      "irure",
      "et",
      "tempor",
      "ut",
      "ea",
      "occaecat"
    ]
  },
  {
    "_id": "5cd73087325e233df57ccd31",
    "index": 52,
    "isActive": true,
    "picture": "https://besthqwallpapers.com/Uploads/25-9-2018/66680/thumb2-tesla-model-x-novitec-2018-exterior-white-electric-car.jpg",
    "year": 1980,
    "price": 3861,
    "color": "red",
    "carType": "Sedan",
    "title": "Selling car!",
"name": "Melva",
    "carmark": "Volkswagen",
    "email": "melvaabbott@providco.com",
    "phone": "+1 (976) 429-2429",
    "about": "Ex enim et voluptate officia culpa nisi nisi ut nostrud laborum ea exercitation consectetur do. Cupidatat ea id qui dolore est sint fugiat ipsum non exercitation in amet culpa. Aute nulla veniam in consequat exercitation dolor laboris cillum.\r\n",
    "registered": "2018-05-12T11:06:56 -03:00",
    "tags": [
      "pariatur",
      "velit",
      "minim",
      "anim",
      "fugiat",
      "velit",
      "excepteur"
    ]
  },
  {
    "_id": "5cd73087e1d47cb3cc2163ff",
    "index": 53,
    "isActive": false,
    "picture": "https://besthqwallpapers.com/Uploads/25-9-2018/66680/thumb2-tesla-model-x-novitec-2018-exterior-white-electric-car.jpg",
    "year": 2007,
    "price": 9498,
    "color": "red",
    "carType": "Sedan",
    "title": "Selling car!",
"name": "Curry",
    "carmark": "Nissan",
    "email": "curryabbott@providco.com",
    "phone": "+1 (807) 501-3570",
    "about": "Enim minim et anim in aute incididunt dolore dolor laborum ea aliqua ea. Anim laborum eu eiusmod aliquip magna velit. Fugiat pariatur non eu amet ea fugiat. Consectetur minim consequat ipsum mollit ea Lorem reprehenderit nisi adipisicing laborum. Fugiat laborum fugiat aliqua labore mollit non fugiat.\r\n",
    "registered": "2017-01-05T05:52:35 -02:00",
    "tags": [
      "nisi",
      "excepteur",
      "fugiat",
      "nostrud",
      "consequat",
      "in",
      "non"
    ]
  },
  {
    "_id": "5cd730874211a85521ec3bfd",
    "index": 54,
    "isActive": false,
    "picture": "https://besthqwallpapers.com/Uploads/25-9-2018/66680/thumb2-tesla-model-x-novitec-2018-exterior-white-electric-car.jpg",
    "year": 2004,
    "price": 3718,
    "color": "green",
    "carType": "Sedan",
    "title": "Selling car!",
"name": "Frost",
    "carmark": "ВАЗ",
    "email": "frostabbott@providco.com",
    "phone": "+1 (951) 511-2441",
    "about": "Nulla qui adipisicing adipisicing laboris velit occaecat enim sint laborum consequat. Officia elit voluptate nisi minim aute reprehenderit velit exercitation sint qui. Consectetur quis occaecat excepteur pariatur labore aliquip irure dolore dolore.\r\n",
    "registered": "2016-01-13T01:29:37 -02:00",
    "tags": [
      "sint",
      "est",
      "laborum",
      "non",
      "adipisicing",
      "sit",
      "labore"
    ]
  },
  {
    "_id": "5cd73087215dd2aaabea3d42",
    "index": 55,
    "isActive": true,
    "picture": "https://besthqwallpapers.com/Uploads/25-9-2018/66680/thumb2-tesla-model-x-novitec-2018-exterior-white-electric-car.jpg",
    "year": 2005,
    "price": 3986,
    "color": "brown",
    "carType": "Passenger car",
    "title": "Selling car!",
"name": "Jefferson",
    "carmark": "Huyndai",
    "email": "jeffersonabbott@providco.com",
    "phone": "+1 (921) 413-3006",
    "about": "Magna elit Lorem dolor elit nostrud consectetur labore officia cillum. Nisi nulla adipisicing exercitation quis labore officia qui quis reprehenderit eiusmod quis. Non adipisicing excepteur minim sint veniam magna. Et excepteur culpa laboris minim aute ullamco anim et sint officia laborum. Enim occaecat quis ea fugiat occaecat in excepteur quis exercitation. Duis sit ad aliqua amet cupidatat aliquip fugiat esse mollit elit laboris aliqua. Mollit aliqua duis magna mollit magna irure proident sunt.\r\n",
    "registered": "2018-04-06T03:01:56 -03:00",
    "tags": [
      "et",
      "incididunt",
      "ipsum",
      "aliqua",
      "nulla",
      "aute",
      "fugiat"
    ]
  },
  {
    "_id": "5cd73087798888f33e020210",
    "index": 56,
    "isActive": false,
    "picture": "https://besthqwallpapers.com/Uploads/25-9-2018/66680/thumb2-tesla-model-x-novitec-2018-exterior-white-electric-car.jpg",
    "year": 1993,
    "price": 3299,
    "color": "pink",
    "carType": "Hatch—back",
    "title": "Selling car!",
"name": "Buckley",
    "carmark": "Volkswagen",
    "email": "buckleyabbott@providco.com",
    "phone": "+1 (942) 588-3033",
    "about": "Laboris id ut amet nulla consectetur elit amet cupidatat exercitation ad. Excepteur amet cillum aute minim. Dolore eiusmod minim ipsum cillum velit incididunt occaecat fugiat labore et et. Est ut ex duis duis tempor excepteur veniam excepteur exercitation pariatur. Non cupidatat irure consectetur officia nisi officia duis enim fugiat excepteur quis aute officia veniam. Exercitation sit deserunt Lorem Lorem amet ullamco excepteur sint dolor aliquip eu pariatur sit.\r\n",
    "registered": "2018-11-27T10:19:36 -02:00",
    "tags": [
      "proident",
      "ea",
      "laboris",
      "ad",
      "exercitation",
      "ea",
      "aute"
    ]
  },
  {
    "_id": "5cd73087e3f8e4341d21bfb2",
    "index": 57,
    "isActive": false,
    "picture": "https://besthqwallpapers.com/Uploads/25-9-2018/66680/thumb2-tesla-model-x-novitec-2018-exterior-white-electric-car.jpg",
    "year": 1997,
    "price": 7501,
    "color": "red",
    "carType": "Sports car",
    "title": "Selling car!",
"name": "Gertrude",
    "carmark": "Opel",
    "email": "gertrudeabbott@providco.com",
    "phone": "+1 (946) 494-3934",
    "about": "Excepteur laboris quis amet elit eu labore commodo Lorem sunt quis cupidatat proident non magna. Aute deserunt excepteur non ut magna consequat proident sunt sunt aliqua incididunt excepteur. Mollit ullamco nulla aliquip amet sunt ad deserunt excepteur ad qui aliquip.\r\n",
    "registered": "2014-09-26T10:36:02 -03:00",
    "tags": [
      "voluptate",
      "eu",
      "ullamco",
      "eu",
      "exercitation",
      "ut",
      "ea"
    ]
  },
  {
    "_id": "5cd73087ad114729eed522cd",
    "index": 58,
    "isActive": false,
    "picture": "https://besthqwallpapers.com/Uploads/25-9-2018/66680/thumb2-tesla-model-x-novitec-2018-exterior-white-electric-car.jpg",
    "year": 2000,
    "price": 3326,
    "color": "red",
    "carType": "Hatch—back",
    "title": "Selling car!",
"name": "Haley",
    "carmark": "Tesla",
    "email": "haleyabbott@providco.com",
    "phone": "+1 (924) 565-2987",
    "about": "Ea fugiat ea commodo veniam enim. Ad magna ex eu sit commodo consequat voluptate sunt veniam aute labore ad laborum adipisicing. Sunt qui ad incididunt enim ea ut deserunt labore. Eiusmod ad id voluptate exercitation ad incididunt dolore do esse reprehenderit qui. Cillum tempor adipisicing laborum est anim ea. Ea et esse occaecat veniam excepteur nostrud consectetur esse eu enim reprehenderit. Qui eu in occaecat magna do commodo anim exercitation proident sit sint qui.\r\n",
    "registered": "2016-05-16T06:36:47 -03:00",
    "tags": [
      "pariatur",
      "labore",
      "non",
      "ullamco",
      "laboris",
      "enim",
      "proident"
    ]
  },
  {
    "_id": "5cd7308797c00dcdf68ba230",
    "index": 59,
    "isActive": true,
    "picture": "https://besthqwallpapers.com/Uploads/25-9-2018/66680/thumb2-tesla-model-x-novitec-2018-exterior-white-electric-car.jpg",
    "year": 2006,
    "price": 5024,
    "color": "brown",
    "carType": "Sedan",
    "title": "Selling car!",
"name": "Candice",
    "carmark": "Volkswagen",
    "email": "candiceabbott@providco.com",
    "phone": "+1 (976) 452-3250",
    "about": "Nulla anim incididunt reprehenderit quis aliqua minim culpa veniam ipsum ad ut minim enim enim. Commodo dolore anim consectetur ullamco aliquip et fugiat ullamco laboris labore pariatur cillum adipisicing tempor. Sunt exercitation elit exercitation in laborum duis occaecat irure deserunt est magna irure exercitation. Nostrud ex aliquip sit nulla non amet cupidatat.\r\n",
    "registered": "2014-07-07T07:47:17 -03:00",
    "tags": [
      "do",
      "nulla",
      "ipsum",
      "nisi",
      "tempor",
      "et",
      "id"
    ]
  },
  {
    "_id": "5cd7308735aa7004fb7f69ff",
    "index": 60,
    "isActive": false,
    "picture": "https://besthqwallpapers.com/Uploads/25-9-2018/66680/thumb2-tesla-model-x-novitec-2018-exterior-white-electric-car.jpg",
    "year": 2002,
    "price": 4311,
    "color": "red",
    "carType": "Coupe",
    "title": "Selling car!",
"name": "Herminia",
    "carmark": "BMW",
    "email": "herminiaabbott@providco.com",
    "phone": "+1 (936) 460-3345",
    "about": "Magna tempor anim eiusmod adipisicing velit anim commodo magna excepteur. Ullamco sit consequat commodo sint deserunt do elit. Duis ullamco ad ex esse ad consectetur reprehenderit dolor mollit pariatur ipsum eu magna pariatur.\r\n",
    "registered": "2017-05-12T01:25:47 -03:00",
    "tags": [
      "laboris",
      "ea",
      "excepteur",
      "id",
      "do",
      "ea",
      "fugiat"
    ]
  },
  {
    "_id": "5cd7308744083934bfbc381f",
    "index": 61,
    "isActive": true,
    "picture": "https://besthqwallpapers.com/Uploads/25-9-2018/66680/thumb2-tesla-model-x-novitec-2018-exterior-white-electric-car.jpg",
    "year": 1987,
    "price": 5586,
    "color": "brown",
    "carType": "Passenger car",
    "title": "Selling car!",
"name": "Stark",
    "carmark": "BMW",
    "email": "starkabbott@providco.com",
    "phone": "+1 (896) 509-2857",
    "about": "Minim pariatur deserunt sit commodo irure non. Veniam dolore fugiat qui fugiat consequat et commodo. Magna aliquip occaecat aute enim ipsum adipisicing. Enim elit aute Lorem labore dolor aliqua eu consequat eiusmod. Pariatur ullamco esse qui exercitation mollit nisi consequat. Aute anim pariatur excepteur non mollit dolore magna velit proident enim minim laborum excepteur excepteur. Officia Lorem exercitation cillum enim sit et qui ad nisi excepteur aliquip.\r\n",
    "registered": "2019-02-28T10:27:57 -02:00",
    "tags": [
      "ullamco",
      "nulla",
      "excepteur",
      "eiusmod",
      "est",
      "ullamco",
      "ullamco"
    ]
  },
  {
    "_id": "5cd73087b0bdc012d0f25061",
    "index": 62,
    "isActive": true,
    "picture": "https://besthqwallpapers.com/Uploads/25-9-2018/66680/thumb2-tesla-model-x-novitec-2018-exterior-white-electric-car.jpg",
    "year": 2011,
    "price": 8861,
    "color": "black",
    "carType": "Sedan",
    "title": "Selling car!",
"name": "Terry",
    "carmark": "BMW",
    "email": "terryabbott@providco.com",
    "phone": "+1 (816) 502-3784",
    "about": "Officia veniam occaecat mollit velit culpa. Aliqua est ipsum aute sunt ea velit qui duis labore tempor. Excepteur ipsum nostrud veniam anim mollit aute est dolor aliqua ad irure labore ad reprehenderit. Amet esse do magna occaecat pariatur eiusmod anim qui.\r\n",
    "registered": "2017-10-07T12:26:31 -03:00",
    "tags": [
      "ut",
      "irure",
      "ex",
      "cupidatat",
      "eu",
      "labore",
      "occaecat"
    ]
  },
  {
    "_id": "5cd73087c89989bcb34e6584",
    "index": 63,
    "isActive": false,
    "picture": "https://besthqwallpapers.com/Uploads/25-9-2018/66680/thumb2-tesla-model-x-novitec-2018-exterior-white-electric-car.jpg",
    "year": 2016,
    "price": 6492,
    "color": "yellow",
    "carType": "Hatch—back",
    "title": "Selling car!",
"name": "Clara",
    "carmark": "Volkswagen",
    "email": "claraabbott@providco.com",
    "phone": "+1 (979) 569-2141",
    "about": "Tempor consectetur consectetur est officia cupidatat ea anim enim proident consectetur non culpa ea. Cillum id sit esse anim sit proident duis et non eu fugiat aute do irure. Amet non eu eiusmod commodo consectetur. Ad aliqua non enim nostrud deserunt. Pariatur anim mollit tempor culpa. Mollit mollit aliqua fugiat consequat dolor cillum. Enim proident mollit duis sit fugiat amet officia enim nostrud nulla ullamco.\r\n",
    "registered": "2017-12-14T06:56:46 -02:00",
    "tags": [
      "sint",
      "reprehenderit",
      "magna",
      "incididunt",
      "excepteur",
      "amet",
      "nostrud"
    ]
  },
  {
    "_id": "5cd730876e9725d26d85744c",
    "index": 64,
    "isActive": true,
    "picture": "https://besthqwallpapers.com/Uploads/25-9-2018/66680/thumb2-tesla-model-x-novitec-2018-exterior-white-electric-car.jpg",
    "year": 2009,
    "price": 3318,
    "color": "pink",
    "carType": "Passenger car",
    "title": "Selling car!",
"name": "Loretta",
    "carmark": "Huyndai",
    "email": "lorettaabbott@providco.com",
    "phone": "+1 (853) 525-2564",
    "about": "Culpa esse esse eu consequat. Id qui amet elit in proident qui consectetur aliqua deserunt enim minim. Ullamco deserunt occaecat duis laboris in aliqua non consequat labore. Irure adipisicing ut magna id mollit tempor. Veniam irure id eu aliqua eiusmod duis adipisicing nostrud aliquip mollit.\r\n",
    "registered": "2018-08-18T01:11:24 -03:00",
    "tags": [
      "amet",
      "consectetur",
      "fugiat",
      "pariatur",
      "laboris",
      "adipisicing",
      "ea"
    ]
  },
  {
    "_id": "5cd730871fad0fe6901466af",
    "index": 65,
    "isActive": true,
    "picture": "https://besthqwallpapers.com/Uploads/25-9-2018/66680/thumb2-tesla-model-x-novitec-2018-exterior-white-electric-car.jpg",
    "year": 2017,
    "price": 3520,
    "color": "yellow",
    "carType": "Passenger car",
    "title": "Selling car!",
"name": "Becker",
    "carmark": "Opel",
    "email": "beckerabbott@providco.com",
    "phone": "+1 (878) 560-3940",
    "about": "Id aliqua nisi ad quis proident laboris culpa laborum cillum. Laborum labore non officia exercitation enim esse velit est culpa cillum ad laboris consequat labore. Excepteur excepteur velit commodo nisi nostrud laborum aliqua ullamco reprehenderit. Voluptate minim enim adipisicing quis laborum sint. Quis ut ex irure consequat. Ex amet ex amet minim voluptate nulla dolore sit est irure excepteur. Qui eu ea exercitation minim esse.\r\n",
    "registered": "2014-02-13T10:23:44 -02:00",
    "tags": [
      "tempor",
      "Lorem",
      "elit",
      "Lorem",
      "ad",
      "consectetur",
      "nostrud"
    ]
  },
  {
    "_id": "5cd730876141719630bc7a28",
    "index": 66,
    "isActive": false,
    "picture": "https://besthqwallpapers.com/Uploads/25-9-2018/66680/thumb2-tesla-model-x-novitec-2018-exterior-white-electric-car.jpg",
    "year": 2009,
    "price": 5191,
    "color": "yellow",
    "carType": "Sports car",
    "title": "Selling car!",
"name": "Carole",
    "carmark": "BMW",
    "email": "caroleabbott@providco.com",
    "phone": "+1 (816) 558-2415",
    "about": "Cillum cupidatat exercitation ullamco commodo dolor occaecat sint enim esse non irure. Pariatur dolor pariatur magna quis cupidatat Lorem incididunt dolor elit. Voluptate proident qui ut excepteur aliqua sit qui elit labore.\r\n",
    "registered": "2017-02-15T03:17:12 -02:00",
    "tags": [
      "nulla",
      "ad",
      "velit",
      "pariatur",
      "sit",
      "ullamco",
      "adipisicing"
    ]
  },
  {
    "_id": "5cd73087a61e7fa543ec5152",
    "index": 67,
    "isActive": false,
    "picture": "https://besthqwallpapers.com/Uploads/25-9-2018/66680/thumb2-tesla-model-x-novitec-2018-exterior-white-electric-car.jpg",
    "year": 1984,
    "price": 2883,
    "color": "red",
    "carType": "Coupe",
    "title": "Selling car!",
"name": "Lola",
    "carmark": "Volkswagen",
    "email": "lolaabbott@providco.com",
    "phone": "+1 (935) 539-3363",
    "about": "Anim fugiat irure in duis aliquip id eu excepteur aliqua aliqua. Commodo laborum adipisicing non elit aliquip commodo. Anim fugiat ad ipsum commodo Lorem sit id voluptate officia officia. Ex dolor sint consequat culpa minim voluptate. Labore amet occaecat nulla deserunt nisi ex.\r\n",
    "registered": "2015-07-14T04:23:34 -03:00",
    "tags": [
      "esse",
      "ea",
      "eu",
      "ad",
      "consequat",
      "pariatur",
      "adipisicing"
    ]
  },
  {
    "_id": "5cd730877619eedf67b88417",
    "index": 68,
    "isActive": true,
    "picture": "https://besthqwallpapers.com/Uploads/25-9-2018/66680/thumb2-tesla-model-x-novitec-2018-exterior-white-electric-car.jpg",
    "year": 2017,
    "price": 2541,
    "color": "black",
    "carType": "Hybrid",
    "title": "Selling car!",
"name": "Hicks",
    "carmark": "Volkswagen",
    "email": "hicksabbott@providco.com",
    "phone": "+1 (879) 571-3570",
    "about": "Elit enim nostrud sit sit minim ad anim. Enim irure ipsum ipsum ipsum excepteur ad adipisicing qui aute qui veniam sunt. Sint amet Lorem elit ex nulla.\r\n",
    "registered": "2017-08-08T07:24:22 -03:00",
    "tags": [
      "amet",
      "anim",
      "anim",
      "laboris",
      "amet",
      "non",
      "reprehenderit"
    ]
  },
  {
    "_id": "5cd73087134ff7f81d7acf98",
    "index": 69,
    "isActive": true,
    "picture": "https://besthqwallpapers.com/Uploads/25-9-2018/66680/thumb2-tesla-model-x-novitec-2018-exterior-white-electric-car.jpg",
    "year": 1981,
    "price": 8536,
    "color": "red",
    "carType": "Hybrid",
    "title": "Selling car!",
"name": "Josie",
    "carmark": "Mercedes",
    "email": "josieabbott@providco.com",
    "phone": "+1 (824) 448-2730",
    "about": "Dolor labore ut laboris ex et quis ad est amet. Veniam labore anim fugiat ipsum officia. Sit eu non pariatur aute ad nisi ut id dolore voluptate ipsum laborum consectetur ad. Culpa mollit minim commodo magna. Excepteur exercitation mollit adipisicing sit voluptate laboris nulla dolor minim deserunt anim dolore. Aliqua enim eiusmod anim dolor ex veniam elit ea quis ut.\r\n",
    "registered": "2018-05-21T09:57:22 -03:00",
    "tags": [
      "velit",
      "commodo",
      "Lorem",
      "amet",
      "deserunt",
      "deserunt",
      "occaecat"
    ]
  },
  {
    "_id": "5cd730879f7e48500d8dc3a9",
    "index": 70,
    "isActive": true,
    "picture": "https://besthqwallpapers.com/Uploads/25-9-2018/66680/thumb2-tesla-model-x-novitec-2018-exterior-white-electric-car.jpg",
    "year": 1980,
    "price": 5720,
    "color": "yellow",
    "carType": "Sports car",
    "title": "Selling car!",
"name": "Bolton",
    "carmark": "Huyndai",
    "email": "boltonabbott@providco.com",
    "phone": "+1 (905) 512-2280",
    "about": "Sit exercitation do veniam magna cillum Lorem adipisicing. Qui velit amet fugiat in. Minim magna elit pariatur sunt anim enim.\r\n",
    "registered": "2015-10-26T11:32:00 -02:00",
    "tags": [
      "officia",
      "ad",
      "enim",
      "aliqua",
      "adipisicing",
      "excepteur",
      "duis"
    ]
  },
  {
    "_id": "5cd730876a5c488de0a6d0f2",
    "index": 71,
    "isActive": true,
    "picture": "https://besthqwallpapers.com/Uploads/25-9-2018/66680/thumb2-tesla-model-x-novitec-2018-exterior-white-electric-car.jpg",
    "year": 1989,
    "price": 5918,
    "color": "red",
    "carType": "Sports car",
    "title": "Selling car!",
"name": "Lesley",
    "carmark": "Opel",
    "email": "lesleyabbott@providco.com",
    "phone": "+1 (954) 504-2936",
    "about": "Mollit culpa magna elit voluptate Lorem cillum. Et eu mollit reprehenderit deserunt quis nostrud minim consectetur non magna fugiat. Cillum incididunt proident consectetur sit enim dolor est proident et. Nostrud Lorem laborum proident anim. Irure ad ea nulla magna nulla duis sunt amet eu. Quis qui do occaecat consequat pariatur nisi nostrud ex deserunt do pariatur. Velit velit amet esse do nostrud anim reprehenderit deserunt.\r\n",
    "registered": "2018-10-13T11:12:54 -03:00",
    "tags": [
      "do",
      "qui",
      "officia",
      "exercitation",
      "ipsum",
      "ullamco",
      "eiusmod"
    ]
  },
  {
    "_id": "5cd730875c09609316fd17b7",
    "index": 72,
    "isActive": false,
    "picture": "https://besthqwallpapers.com/Uploads/25-9-2018/66680/thumb2-tesla-model-x-novitec-2018-exterior-white-electric-car.jpg",
    "year": 1993,
    "price": 8981,
    "color": "yellow",
    "carType": "Sedan",
    "title": "Selling car!",
"name": "Briana",
    "carmark": "ВАЗ",
    "email": "brianaabbott@providco.com",
    "phone": "+1 (822) 521-2358",
    "about": "Ullamco ullamco aute ut mollit sunt. Nostrud culpa proident aliqua incididunt officia ut ex. Nulla elit nisi dolore in non. Eu et ut anim aute voluptate enim laborum.\r\n",
    "registered": "2015-05-03T03:08:40 -03:00",
    "tags": [
      "do",
      "et",
      "culpa",
      "qui",
      "laboris",
      "amet",
      "sit"
    ]
  },
  {
    "_id": "5cd730875128ac691dfdb5e1",
    "index": 73,
    "isActive": true,
    "picture": "https://besthqwallpapers.com/Uploads/25-9-2018/66680/thumb2-tesla-model-x-novitec-2018-exterior-white-electric-car.jpg",
    "year": 2019,
    "price": 7464,
    "color": "yellow",
    "carType": "Passenger car",
    "title": "Selling car!",
"name": "Alisha",
    "carmark": "Tesla",
    "email": "alishaabbott@providco.com",
    "phone": "+1 (989) 499-3683",
    "about": "Incididunt ex eu ullamco reprehenderit eiusmod aliqua. Commodo aute ad consequat dolor adipisicing minim elit consectetur exercitation excepteur dolore. Velit elit aute consectetur adipisicing nulla ullamco ea. Mollit mollit voluptate quis voluptate tempor nostrud incididunt. Reprehenderit laborum laborum occaecat sunt exercitation.\r\n",
    "registered": "2017-10-17T08:07:19 -03:00",
    "tags": [
      "dolor",
      "velit",
      "duis",
      "Lorem",
      "velit",
      "voluptate",
      "do"
    ]
  },
  {
    "_id": "5cd73087eb834d9edd267a02",
    "index": 74,
    "isActive": true,
    "picture": "https://besthqwallpapers.com/Uploads/25-9-2018/66680/thumb2-tesla-model-x-novitec-2018-exterior-white-electric-car.jpg",
    "year": 2007,
    "price": 799,
    "color": "black",
    "carType": "Hatch—back",
    "title": "Selling car!",
"name": "Cohen",
    "carmark": "Chevrolet",
    "email": "cohenabbott@providco.com",
    "phone": "+1 (807) 413-3538",
    "about": "Occaecat sunt ex commodo sunt laborum. Ea veniam ad veniam et elit cillum consectetur eu. Cillum eiusmod voluptate laborum ut occaecat ut labore proident nostrud amet irure laborum.\r\n",
    "registered": "2018-09-12T07:05:51 -03:00",
    "tags": [
      "ad",
      "quis",
      "occaecat",
      "ad",
      "minim",
      "esse",
      "et"
    ]
  },
  {
    "_id": "5cd73087038837ec69dda651",
    "index": 75,
    "isActive": true,
    "picture": "https://besthqwallpapers.com/Uploads/25-9-2018/66680/thumb2-tesla-model-x-novitec-2018-exterior-white-electric-car.jpg",
    "year": 1980,
    "price": 245,
    "color": "yellow",
    "carType": "Sedan",
    "title": "Selling car!",
"name": "Lauri",
    "carmark": "Opel",
    "email": "lauriabbott@providco.com",
    "phone": "+1 (815) 544-2072",
    "about": "Anim incididunt consectetur ad officia quis Lorem qui exercitation velit enim culpa velit. Consequat culpa eu anim deserunt ullamco anim Lorem et esse ea. Proident et in ad mollit. Eiusmod qui nisi pariatur aute sint excepteur ea. Aliquip velit commodo occaecat do tempor velit. Ullamco sunt ipsum qui proident mollit excepteur quis ullamco minim.\r\n",
    "registered": "2014-12-03T10:28:57 -02:00",
    "tags": [
      "eiusmod",
      "officia",
      "elit",
      "eiusmod",
      "mollit",
      "deserunt",
      "sit"
    ]
  },
  {
    "_id": "5cd730879e02733e3e9fd89f",
    "index": 76,
    "isActive": false,
    "picture": "https://besthqwallpapers.com/Uploads/25-9-2018/66680/thumb2-tesla-model-x-novitec-2018-exterior-white-electric-car.jpg",
    "year": 1994,
    "price": 9071,
    "color": "yellow",
    "carType": "Minivan",
    "title": "Selling car!",
"name": "Pearlie",
    "carmark": "Nissan",
    "email": "pearlieabbott@providco.com",
    "phone": "+1 (928) 567-2917",
    "about": "Tempor Lorem aute consequat amet reprehenderit sint sint nulla reprehenderit id qui occaecat. Consequat excepteur labore exercitation minim. Tempor sit tempor cillum tempor voluptate aliqua mollit ullamco irure culpa fugiat ullamco. Cupidatat irure dolore fugiat deserunt magna deserunt anim sunt deserunt consectetur reprehenderit eu. Irure minim ipsum pariatur nisi non do esse eiusmod. Proident dolor quis adipisicing id non laborum consectetur amet nulla Lorem. Ullamco ea qui quis deserunt.\r\n",
    "registered": "2017-05-08T01:32:33 -03:00",
    "tags": [
      "duis",
      "velit",
      "mollit",
      "fugiat",
      "anim",
      "aute",
      "consectetur"
    ]
  },
  {
    "_id": "5cd73087f8cfbae34099d48e",
    "index": 77,
    "isActive": true,
    "picture": "https://besthqwallpapers.com/Uploads/25-9-2018/66680/thumb2-tesla-model-x-novitec-2018-exterior-white-electric-car.jpg",
    "year": 1980,
    "price": 4958,
    "color": "brown",
    "carType": "Hatch—back",
    "title": "Selling car!",
"name": "Brock",
    "carmark": "BMW",
    "email": "brockabbott@providco.com",
    "phone": "+1 (948) 520-3219",
    "about": "Dolor veniam incididunt nulla cillum aute fugiat reprehenderit. Consequat anim elit minim pariatur excepteur aliqua non proident Lorem. Cupidatat sint ipsum excepteur non voluptate qui.\r\n",
    "registered": "2018-02-27T07:02:43 -02:00",
    "tags": [
      "deserunt",
      "sint",
      "dolore",
      "eiusmod",
      "veniam",
      "sint",
      "incididunt"
    ]
  },
  {
    "_id": "5cd7308742235ab4d98b7dde",
    "index": 78,
    "isActive": false,
    "picture": "https://besthqwallpapers.com/Uploads/25-9-2018/66680/thumb2-tesla-model-x-novitec-2018-exterior-white-electric-car.jpg",
    "year": 1995,
    "price": 227,
    "color": "green",
    "carType": "Minivan",
    "title": "Selling car!",
"name": "Ann",
    "carmark": "Huyndai",
    "email": "annabbott@providco.com",
    "phone": "+1 (951) 543-2723",
    "about": "Esse aute dolore Lorem aliquip. Non dolore aliquip sunt tempor sit voluptate officia exercitation id ad minim fugiat. Consectetur exercitation reprehenderit tempor do in pariatur culpa eiusmod est proident quis. Qui quis cupidatat esse sit labore.\r\n",
    "registered": "2018-02-18T06:17:15 -02:00",
    "tags": [
      "culpa",
      "excepteur",
      "voluptate",
      "ullamco",
      "enim",
      "proident",
      "laboris"
    ]
  },
  {
    "_id": "5cd7308791c29ae36c54fa2b",
    "index": 79,
    "isActive": true,
    "picture": "https://besthqwallpapers.com/Uploads/25-9-2018/66680/thumb2-tesla-model-x-novitec-2018-exterior-white-electric-car.jpg",
    "year": 2012,
    "price": 4649,
    "color": "green",
    "carType": "Sedan",
    "title": "Selling car!",
"name": "Phillips",
    "carmark": "Huyndai",
    "email": "phillipsabbott@providco.com",
    "phone": "+1 (865) 420-3275",
    "about": "Velit non sit commodo commodo aliqua adipisicing ipsum ex aute esse. Elit adipisicing do officia occaecat. Qui dolore ea sint laborum ullamco. Nostrud deserunt ipsum est mollit ex occaecat id est aliqua eiusmod proident. Lorem ea dolore reprehenderit consequat non sunt consequat et ut consequat esse duis ullamco magna.\r\n",
    "registered": "2015-02-10T03:54:46 -02:00",
    "tags": [
      "in",
      "dolor",
      "nisi",
      "amet",
      "ullamco",
      "et",
      "aliqua"
    ]
  },
  {
    "_id": "5cd730873c67e2b07f28f26e",
    "index": 80,
    "isActive": true,
    "picture": "https://besthqwallpapers.com/Uploads/25-9-2018/66680/thumb2-tesla-model-x-novitec-2018-exterior-white-electric-car.jpg",
    "year": 1996,
    "price": 3340,
    "color": "blue",
    "carType": "Hatch—back",
    "title": "Selling car!",
"name": "Joseph",
    "carmark": "Mercedes",
    "email": "josephabbott@providco.com",
    "phone": "+1 (992) 469-2180",
    "about": "Anim eiusmod quis minim amet officia id commodo est id proident esse veniam. Aliquip occaecat duis aliquip voluptate sit tempor excepteur eiusmod consectetur exercitation. Excepteur qui reprehenderit amet elit aliquip sunt labore tempor deserunt sunt culpa. Do cupidatat duis aliqua eu amet mollit nostrud sunt est sunt proident nulla adipisicing qui. Dolore culpa duis commodo ex culpa duis exercitation nulla. Nulla sit anim exercitation qui Lorem do nulla aliquip aliquip esse deserunt. Ipsum anim sunt esse sit qui tempor pariatur nulla.\r\n",
    "registered": "2016-08-09T11:45:32 -03:00",
    "tags": [
      "dolor",
      "aute",
      "incididunt",
      "magna",
      "cillum",
      "esse",
      "id"
    ]
  },
  {
    "_id": "5cd73087b2e3728d229d4c09",
    "index": 81,
    "isActive": false,
    "picture": "https://besthqwallpapers.com/Uploads/25-9-2018/66680/thumb2-tesla-model-x-novitec-2018-exterior-white-electric-car.jpg",
    "year": 2003,
    "price": 4616,
    "color": "green",
    "carType": "Sedan",
    "title": "Selling car!",
"name": "Thomas",
    "carmark": "Volkswagen",
    "email": "thomasabbott@providco.com",
    "phone": "+1 (985) 425-3025",
    "about": "Voluptate exercitation officia excepteur id ut ut ea elit consequat culpa et laboris. Ex culpa aliqua ea voluptate adipisicing. Ea nisi culpa irure mollit.\r\n",
    "registered": "2015-12-16T12:44:00 -02:00",
    "tags": [
      "culpa",
      "reprehenderit",
      "sint",
      "nisi",
      "dolore",
      "esse",
      "ex"
    ]
  }
]