[
  {
    "_id": "5ce304b837dc9cb850c68b19",
    "index": 0,
    "isActive": false,
    "picture": "https://besthqwallpapers.com/Uploads/25-9-2018/66680/thumb2-tesla-model-x-novitec-2018-exterior-white-electric-car.jpg",
    "year": 2017,
    "price": 8638,
    "color": "red",
    "carType": "Sedan",
    "name": "Yvonne",
    "carmark": "ВАЗ",
    "bodytype_ru": "Микровэн",
    "bodytype_en": "Crossover",
    "transmission_ru": "Секвентальная",
    "transmission_en": "Tiptronic",
    "fuel_ru": "Дизтопливо",
    "fuel_en": "Gas",
    "email": "yvonnezamora@portaline.com",
    "phone": "+1 (808) 544-3069",
    "about": "Ad minim proident in ad cupidatat ea nisi amet nostrud magna incididunt exercitation Lorem qui. Labore laboris officia culpa elit mollit qui exercitation laborum exercitation sunt duis cupidatat. Eiusmod est officia minim sunt aliquip Lorem magna ea eiusmod. Elit anim anim sit ad id nulla ullamco proident elit reprehenderit aliqua ut dolore sint. Consectetur quis eu amet nisi.\r\n",
    "registered": "2014-08-31T11:54:53 -03:00",
    "tags": [
      "labore",
      "officia",
      "sit",
      "elit",
      "Lorem",
      "ex",
      "commodo"
    ]
  },
  {
    "_id": "5ce304b8cf2eb0e78620eaf1",
    "index": 1,
    "isActive": false,
    "picture": "https://besthqwallpapers.com/Uploads/25-9-2018/66680/thumb2-tesla-model-x-novitec-2018-exterior-white-electric-car.jpg",
    "year": 2013,
    "price": 7980,
    "color": "pink",
    "carType": "Hatch—back",
    "name": "Clements",
    "carmark": "Nissan",
    "bodytype_ru": "Лифтбэк",
    "bodytype_en": "Pickup",
    "transmission_ru": "Гидромеханическая",
    "transmission_en": "Robotic",
    "fuel_ru": "Бензин/Электричество",
    "fuel_en": "Gasoline / Gas",
    "email": "clementszamora@portaline.com",
    "phone": "+1 (887) 473-2339",
    "about": "Est tempor dolor adipisicing voluptate sunt cillum velit id labore irure id. Sunt adipisicing proident officia et. Labore nisi dolor tempor dolor nisi ut aliquip aliquip do laborum duis excepteur occaecat. Cillum est ea exercitation et elit dolor qui exercitation dolor esse. Consectetur in quis deserunt incididunt nisi ipsum do officia. Sint officia ipsum ex eiusmod est.\r\n",
    "registered": "2015-07-08T05:08:16 -03:00",
    "tags": [
      "deserunt",
      "ut",
      "quis",
      "laborum",
      "enim",
      "adipisicing",
      "fugiat"
    ]
  },
  {
    "_id": "5ce304b895b148b30d7f4669",
    "index": 2,
    "isActive": false,
    "picture": "https://besthqwallpapers.com/Uploads/25-9-2018/66680/thumb2-tesla-model-x-novitec-2018-exterior-white-electric-car.jpg",
    "year": 2012,
    "price": 561,
    "color": "red",
    "carType": "Passenger car",
    "name": "Bond",
    "carmark": "Huyndai",
    "bodytype_ru": "Пикап",
    "bodytype_en": "Pickup",
    "transmission_ru": "Вариатор",
    "transmission_en": "Planetary",
    "fuel_ru": "Газ",
    "fuel_en": "Gasoline / Electricity",
    "email": "bondzamora@portaline.com",
    "phone": "+1 (841) 557-3559",
    "about": "Ut incididunt sint qui Lorem. Occaecat labore laboris sint laborum cupidatat irure velit duis elit labore exercitation veniam proident. Nisi labore nulla veniam reprehenderit id. Pariatur sit esse irure pariatur et dolore enim fugiat cillum occaecat sit tempor.\r\n",
    "registered": "2016-09-22T10:22:09 -03:00",
    "tags": [
      "minim",
      "consectetur",
      "sit",
      "sint",
      "nulla",
      "adipisicing",
      "ea"
    ]
  },
  {
    "_id": "5ce304b81acaeb05fe8d67c0",
    "index": 3,
    "isActive": false,
    "picture": "https://besthqwallpapers.com/Uploads/25-9-2018/66680/thumb2-tesla-model-x-novitec-2018-exterior-white-electric-car.jpg",
    "year": 1985,
    "price": 5772,
    "color": "green",
    "carType": "Hybrid",
    "name": "Doyle",
    "carmark": "ВАЗ",
    "bodytype_ru": "Купе",
    "bodytype_en": "Off-road",
    "transmission_ru": "Планетарная",
    "transmission_en": "Semiautomatic",
    "fuel_ru": "Бензин",
    "fuel_en": "Gasoline / Gas",
    "email": "doylezamora@portaline.com",
    "phone": "+1 (824) 515-3403",
    "about": "Et consequat eu ex tempor. Qui eiusmod ipsum nulla ea ullamco exercitation consequat veniam reprehenderit nisi ut culpa commodo. Voluptate magna non ex culpa commodo adipisicing.\r\n",
    "registered": "2015-06-10T11:09:43 -03:00",
    "tags": [
      "ipsum",
      "minim",
      "fugiat",
      "commodo",
      "est",
      "sit",
      "ullamco"
    ]
  },
  {
    "_id": "5ce304b8217f010e33ec2c6b",
    "index": 4,
    "isActive": false,
    "picture": "https://besthqwallpapers.com/Uploads/25-9-2018/66680/thumb2-tesla-model-x-novitec-2018-exterior-white-electric-car.jpg",
    "year": 1987,
    "price": 8355,
    "color": "blue",
    "carType": "Hybrid",
    "name": "Vasquez",
    "carmark": "Huyndai",
    "bodytype_ru": "Кабриолет",
    "bodytype_en": "Liftback",
    "transmission_ru": "Типтроник",
    "transmission_en": "Variator",
    "fuel_ru": "Бензин",
    "fuel_en": "Gas",
    "email": "vasquezzamora@portaline.com",
    "phone": "+1 (878) 576-3139",
    "about": "Incididunt ea aliquip excepteur occaecat commodo id culpa Lorem amet. Commodo esse voluptate duis elit ex sint laboris ullamco esse esse et exercitation. Commodo id mollit laborum veniam ea. Exercitation consectetur cupidatat eu elit ea minim pariatur. Dolore aliquip commodo nulla aute reprehenderit est eu velit nostrud amet id nostrud. Aliqua in nostrud aliqua sunt.\r\n",
    "registered": "2015-07-27T04:14:57 -03:00",
    "tags": [
      "eiusmod",
      "officia",
      "minim",
      "et",
      "ex",
      "cupidatat",
      "esse"
    ]
  },
  {
    "_id": "5ce304b8ce4e81bd102ca20a",
    "index": 5,
    "isActive": true,
    "picture": "https://besthqwallpapers.com/Uploads/25-9-2018/66680/thumb2-tesla-model-x-novitec-2018-exterior-white-electric-car.jpg",
    "year": 2000,
    "price": 1131,
    "color": "pink",
    "carType": "Minivan",
    "name": "Corrine",
    "carmark": "Mercedes",
    "bodytype_ru": "Внедорожник",
    "bodytype_en": "Off-road",
    "transmission_ru": "Планетарная",
    "transmission_en": "Variator",
    "fuel_ru": "Дизтопливо/Электричество",
    "fuel_en": "Gas",
    "email": "corrinezamora@portaline.com",
    "phone": "+1 (875) 408-3345",
    "about": "Fugiat velit deserunt ipsum sunt dolore sint. Excepteur eiusmod enim fugiat excepteur voluptate. Duis deserunt voluptate id ipsum proident voluptate irure. Quis nostrud sunt ad tempor sunt duis aute laboris ea veniam sint qui ex.\r\n",
    "registered": "2015-05-19T07:46:01 -03:00",
    "tags": [
      "ipsum",
      "eu",
      "adipisicing",
      "officia",
      "consectetur",
      "aliquip",
      "nisi"
    ]
  },
  {
    "_id": "5ce304b8dcfb9b8b0e6c4662",
    "index": 6,
    "isActive": false,
    "picture": "https://besthqwallpapers.com/Uploads/25-9-2018/66680/thumb2-tesla-model-x-novitec-2018-exterior-white-electric-car.jpg",
    "year": 1997,
    "price": 8618,
    "color": "green",
    "carType": "Sedan",
    "name": "Hansen",
    "carmark": "Volkswagen",
    "bodytype_ru": "Внедорожник",
    "bodytype_en": "Pickup",
    "transmission_ru": "Роботизированная",
    "transmission_en": "Planetary",
    "fuel_ru": "Дизтопливо/Электричество",
    "fuel_en": "Gasoline / Electricity",
    "email": "hansenzamora@portaline.com",
    "phone": "+1 (807) 457-3641",
    "about": "Lorem consectetur sunt velit ipsum sit. Ipsum et commodo magna tempor exercitation nisi ut. Laborum est ullamco Lorem voluptate ex consequat. Amet exercitation officia cupidatat laborum. Sit sit cillum occaecat aliqua excepteur aute tempor velit eiusmod exercitation quis occaecat.\r\n",
    "registered": "2018-04-25T05:29:42 -03:00",
    "tags": [
      "laboris",
      "id",
      "magna",
      "ex",
      "commodo",
      "labore",
      "labore"
    ]
  },
  {
    "_id": "5ce304b8cf516bcf713d3e04",
    "index": 7,
    "isActive": false,
    "picture": "https://besthqwallpapers.com/Uploads/25-9-2018/66680/thumb2-tesla-model-x-novitec-2018-exterior-white-electric-car.jpg",
    "year": 1990,
    "price": 7675,
    "color": "blue",
    "carType": "Passenger car",
    "name": "Valarie",
    "carmark": "Mercedes",
    "bodytype_ru": "Кабриолет",
    "bodytype_en": "Crossover",
    "transmission_ru": "Роботизированная",
    "transmission_en": "Sequential",
    "fuel_ru": "Дизтопливо/Электричество",
    "fuel_en": "Gasoline / Gas",
    "email": "valariezamora@portaline.com",
    "phone": "+1 (930) 476-2532",
    "about": "Et et et proident proident culpa consequat velit ut ea sint exercitation consectetur. Incididunt excepteur voluptate elit anim anim velit. Exercitation cupidatat sunt exercitation exercitation aliqua nostrud sint dolore occaecat nostrud amet. Irure dolore eiusmod deserunt voluptate ullamco laborum est eu pariatur do in pariatur exercitation deserunt. Ipsum pariatur consequat non ad irure amet eiusmod nulla qui. Labore anim proident mollit tempor laborum magna nulla velit ipsum ipsum esse fugiat enim aliquip. Nulla ea excepteur ullamco culpa sit culpa deserunt ea ullamco.\r\n",
    "registered": "2017-07-17T07:45:51 -03:00",
    "tags": [
      "non",
      "in",
      "elit",
      "aliquip",
      "pariatur",
      "aliquip",
      "elit"
    ]
  },
  {
    "_id": "5ce304b84992f1e5efdbafe1",
    "index": 8,
    "isActive": false,
    "picture": "https://besthqwallpapers.com/Uploads/25-9-2018/66680/thumb2-tesla-model-x-novitec-2018-exterior-white-electric-car.jpg",
    "year": 2006,
    "price": 6833,
    "color": "blue",
    "carType": "Hybrid",
    "name": "Muriel",
    "carmark": "Tesla",
    "bodytype_ru": "Внедорожник",
    "bodytype_en": "Minibus",
    "transmission_ru": "Полуавтомат",
    "transmission_en": "Hydromechanical",
    "fuel_ru": "Бензин",
    "fuel_en": "Electricity",
    "email": "murielzamora@portaline.com",
    "phone": "+1 (966) 545-2953",
    "about": "Aliquip minim dolore nisi reprehenderit ad elit sint ex adipisicing. Ullamco dolore ipsum dolore culpa commodo proident ut voluptate. Dolor exercitation et amet id. Ad est ullamco non in minim esse excepteur ea nostrud.\r\n",
    "registered": "2019-04-27T11:27:08 -03:00",
    "tags": [
      "enim",
      "Lorem",
      "sunt",
      "laboris",
      "commodo",
      "in",
      "elit"
    ]
  },
  {
    "_id": "5ce304b8d1fd84a13fe3704d",
    "index": 9,
    "isActive": true,
    "picture": "https://besthqwallpapers.com/Uploads/25-9-2018/66680/thumb2-tesla-model-x-novitec-2018-exterior-white-electric-car.jpg",
    "year": 1981,
    "price": 1456,
    "color": "green",
    "carType": "Hybrid",
    "name": "Monique",
    "carmark": "Mazda",
    "bodytype_ru": "Пикап",
    "bodytype_en": "Pickup",
    "transmission_ru": "Механическая",
    "transmission_en": "Variator",
    "fuel_ru": "Дизтопливо",
    "fuel_en": "Gasoline",
    "email": "moniquezamora@portaline.com",
    "phone": "+1 (988) 460-2222",
    "about": "Duis in occaecat duis deserunt non sit sint laboris labore. Nostrud et enim adipisicing laborum voluptate voluptate consectetur sit. Labore qui cillum ipsum ad laborum consequat aliquip in fugiat. Laborum aute est sit dolore Lorem nisi mollit anim. Dolore quis aliquip et enim consectetur. Cupidatat veniam pariatur consequat cupidatat non dolor. Aliquip culpa ea occaecat et in consectetur deserunt ad id adipisicing dolore exercitation amet magna.\r\n",
    "registered": "2017-01-05T03:24:41 -02:00",
    "tags": [
      "Lorem",
      "ipsum",
      "quis",
      "irure",
      "ipsum",
      "voluptate",
      "ad"
    ]
  },
  {
    "_id": "5ce304b8fd69eae8cc1a9f69",
    "index": 10,
    "isActive": false,
    "picture": "https://besthqwallpapers.com/Uploads/25-9-2018/66680/thumb2-tesla-model-x-novitec-2018-exterior-white-electric-car.jpg",
    "year": 2000,
    "price": 3986,
    "color": "red",
    "carType": "Passenger car",
    "name": "Goodman",
    "carmark": "Mazda",
    "bodytype_ru": "Пикап",
    "bodytype_en": "Pickup",
    "transmission_ru": "Механическая",
    "transmission_en": "Semiautomatic",
    "fuel_ru": "Бензин/Электричество",
    "fuel_en": "Diesel Fuel / Electricity",
    "email": "goodmanzamora@portaline.com",
    "phone": "+1 (940) 488-3801",
    "about": "Cillum fugiat consectetur aute ad id nostrud proident officia ea. Ea nostrud sint tempor nulla non deserunt dolore dolore. Laboris ipsum minim aute laboris ex ea. Nulla commodo velit laborum elit. Dolor commodo aliqua elit ad aliquip pariatur.\r\n",
    "registered": "2018-03-10T10:06:32 -02:00",
    "tags": [
      "aute",
      "consectetur",
      "consequat",
      "cupidatat",
      "anim",
      "dolore",
      "nostrud"
    ]
  },
  {
    "_id": "5ce304b81ea28d9fe1b0d0df",
    "index": 11,
    "isActive": true,
    "picture": "https://besthqwallpapers.com/Uploads/25-9-2018/66680/thumb2-tesla-model-x-novitec-2018-exterior-white-electric-car.jpg",
    "year": 2019,
    "price": 6739,
    "color": "green",
    "carType": "Hybrid",
    "name": "Blevins",
    "carmark": "Chevrolet",
    "bodytype_ru": "Минивэн",
    "bodytype_en": "Crossover",
    "transmission_ru": "Роботизированная",
    "transmission_en": "Automatic",
    "fuel_ru": "Дизтопливо/Электричество",
    "fuel_en": "Electricity",
    "email": "blevinszamora@portaline.com",
    "phone": "+1 (978) 585-2764",
    "about": "Eiusmod Lorem amet incididunt adipisicing. Est cupidatat sit quis ea quis ea commodo ullamco qui cillum deserunt aliqua non. Amet ea ea adipisicing consequat in pariatur consectetur velit aliquip proident aute adipisicing elit magna. Elit non velit nulla laboris id.\r\n",
    "registered": "2018-09-19T05:57:20 -03:00",
    "tags": [
      "quis",
      "excepteur",
      "labore",
      "duis",
      "amet",
      "ea",
      "exercitation"
    ]
  },
  {
    "_id": "5ce304b88544bf7e51571d70",
    "index": 12,
    "isActive": true,
    "picture": "https://besthqwallpapers.com/Uploads/25-9-2018/66680/thumb2-tesla-model-x-novitec-2018-exterior-white-electric-car.jpg",
    "year": 2013,
    "price": 2198,
    "color": "red",
    "carType": "Passenger car",
    "name": "Armstrong",
    "carmark": "Tesla",
    "bodytype_ru": "Внедорожник",
    "bodytype_en": "Off-road",
    "transmission_ru": "Типтроник",
    "transmission_en": "Semiautomatic",
    "fuel_ru": "Электричество",
    "fuel_en": "Gasoline / Electricity",
    "email": "armstrongzamora@portaline.com",
    "phone": "+1 (930) 456-2945",
    "about": "Laboris elit id occaecat culpa. Sunt incididunt sit excepteur ex reprehenderit commodo Lorem fugiat sint adipisicing consequat esse. Adipisicing aliqua cupidatat in ad laboris culpa non quis enim voluptate.\r\n",
    "registered": "2018-09-28T10:13:26 -03:00",
    "tags": [
      "voluptate",
      "adipisicing",
      "veniam",
      "ipsum",
      "eu",
      "ipsum",
      "Lorem"
    ]
  },
  {
    "_id": "5ce304b8c7a01253b050674b",
    "index": 13,
    "isActive": true,
    "picture": "https://besthqwallpapers.com/Uploads/25-9-2018/66680/thumb2-tesla-model-x-novitec-2018-exterior-white-electric-car.jpg",
    "year": 1992,
    "price": 4854,
    "color": "blue",
    "carType": "Passenger car",
    "name": "Celia",
    "carmark": "Nissan",
    "bodytype_ru": "Купе",
    "bodytype_en": "Mikroven",
    "transmission_ru": "Механическая",
    "transmission_en": "Automatic",
    "fuel_ru": "Бензин/Газ",
    "fuel_en": "Gas",
    "email": "celiazamora@portaline.com",
    "phone": "+1 (838) 445-3044",
    "about": "Aliqua culpa pariatur aute ex ea. Officia ut ipsum incididunt in minim sit ipsum anim est elit pariatur excepteur elit irure. Culpa ea consectetur esse id ut minim velit.\r\n",
    "registered": "2017-06-03T06:33:19 -03:00",
    "tags": [
      "ipsum",
      "nisi",
      "nisi",
      "quis",
      "ea",
      "dolor",
      "voluptate"
    ]
  },
  {
    "_id": "5ce304b8a443fccbb47e1a69",
    "index": 14,
    "isActive": true,
    "picture": "https://besthqwallpapers.com/Uploads/25-9-2018/66680/thumb2-tesla-model-x-novitec-2018-exterior-white-electric-car.jpg",
    "year": 2017,
    "price": 5300,
    "color": "yellow",
    "carType": "Minivan",
    "name": "Walton",
    "carmark": "Opel",
    "bodytype_ru": "Микроавтобус",
    "bodytype_en": "Mikroven",
    "transmission_ru": "Вариатор",
    "transmission_en": "Hydromechanical",
    "fuel_ru": "Бензин/Электричество",
    "fuel_en": "Gasoline / Gas",
    "email": "waltonzamora@portaline.com",
    "phone": "+1 (934) 491-3067",
    "about": "Quis commodo cillum aliquip esse labore reprehenderit mollit. Amet incididunt qui aliqua in consequat deserunt dolore nulla aliquip est consequat minim aliquip consequat. Sint est culpa ad velit in nulla nisi aliqua ipsum in velit. Dolore laboris esse enim occaecat. Nisi qui ex sunt ad id consectetur duis laborum nisi non aute.\r\n",
    "registered": "2016-12-29T02:06:27 -02:00",
    "tags": [
      "veniam",
      "cupidatat",
      "labore",
      "deserunt",
      "exercitation",
      "ut",
      "aliqua"
    ]
  },
  {
    "_id": "5ce304b8c43eab1a4a262a7b",
    "index": 15,
    "isActive": true,
    "picture": "https://besthqwallpapers.com/Uploads/25-9-2018/66680/thumb2-tesla-model-x-novitec-2018-exterior-white-electric-car.jpg",
    "year": 2019,
    "price": 4438,
    "color": "yellow",
    "carType": "Sports car",
    "name": "Richardson",
    "carmark": "Volkswagen",
    "bodytype_ru": "Пикап",
    "bodytype_en": "Minibus",
    "transmission_ru": "Типтроник",
    "transmission_en": "Hydromechanical",
    "fuel_ru": "Бензин/Газ",
    "fuel_en": "Gasoline / Gas",
    "email": "richardsonzamora@portaline.com",
    "phone": "+1 (983) 504-3294",
    "about": "Duis enim anim sit aliquip cupidatat id cillum. Occaecat esse sit cillum occaecat. Officia dolore laborum aliqua reprehenderit consectetur cupidatat elit in eu dolor veniam. Amet ullamco do aliquip dolor proident minim aute aliqua eu. Consectetur do officia exercitation ullamco dolore. Laboris tempor pariatur voluptate cupidatat ut commodo duis sint minim velit voluptate ea eiusmod.\r\n",
    "registered": "2016-07-03T10:41:42 -03:00",
    "tags": [
      "ipsum",
      "commodo",
      "adipisicing",
      "eiusmod",
      "sint",
      "laborum",
      "aliqua"
    ]
  },
  {
    "_id": "5ce304b825502764537934bc",
    "index": 16,
    "isActive": false,
    "picture": "https://besthqwallpapers.com/Uploads/25-9-2018/66680/thumb2-tesla-model-x-novitec-2018-exterior-white-electric-car.jpg",
    "year": 2014,
    "price": 8214,
    "color": "green",
    "carType": "Hybrid",
    "name": "Campos",
    "carmark": "BMW",
    "bodytype_ru": "Кабриолет",
    "bodytype_en": "Cabriolet",
    "transmission_ru": "Гидромеханическая",
    "transmission_en": "Variator",
    "fuel_ru": "Дизтопливо",
    "fuel_en": "Gas",
    "email": "camposzamora@portaline.com",
    "phone": "+1 (878) 488-3020",
    "about": "Ut officia id minim nisi pariatur. Non irure amet duis anim in Lorem excepteur. Fugiat et est in quis exercitation veniam cupidatat esse ex ipsum non amet non esse. Laborum voluptate duis et reprehenderit esse eu aliquip non aute aliquip dolor nulla aliquip. Irure deserunt qui nostrud reprehenderit culpa minim sint cupidatat pariatur.\r\n",
    "registered": "2016-06-20T02:17:23 -03:00",
    "tags": [
      "quis",
      "laborum",
      "ea",
      "deserunt",
      "ullamco",
      "fugiat",
      "eiusmod"
    ]
  },
  {
    "_id": "5ce304b87d3be6dd6f320cfa",
    "index": 17,
    "isActive": false,
    "picture": "https://besthqwallpapers.com/Uploads/25-9-2018/66680/thumb2-tesla-model-x-novitec-2018-exterior-white-electric-car.jpg",
    "year": 2016,
    "price": 4752,
    "color": "yellow",
    "carType": "Minivan",
    "name": "Morris",
    "carmark": "Mercedes",
    "bodytype_ru": "Кроссовер",
    "bodytype_en": "Minibus",
    "transmission_ru": "Автомат",
    "transmission_en": "Hydromechanical",
    "fuel_ru": "Бензин/Газ",
    "fuel_en": "Diesel Fuel / Electricity",
    "email": "morriszamora@portaline.com",
    "phone": "+1 (889) 459-3479",
    "about": "Voluptate aliqua cillum in sunt proident elit sint reprehenderit do laborum nostrud officia. Duis aliqua pariatur elit est. Do consectetur id velit et cillum. Commodo consequat velit nostrud sunt.\r\n",
    "registered": "2014-09-22T04:15:25 -03:00",
    "tags": [
      "officia",
      "nisi",
      "consectetur",
      "duis",
      "eiusmod",
      "id",
      "dolor"
    ]
  },
  {
    "_id": "5ce304b8e7a7843692ba6ee6",
    "index": 18,
    "isActive": true,
    "picture": "https://besthqwallpapers.com/Uploads/25-9-2018/66680/thumb2-tesla-model-x-novitec-2018-exterior-white-electric-car.jpg",
    "year": 2004,
    "price": 8054,
    "color": "pink",
    "carType": "Sports car",
    "name": "Bobbi",
    "carmark": "Mercedes",
    "bodytype_ru": "Кабриолет",
    "bodytype_en": "Pickup",
    "transmission_ru": "Секвентальная",
    "transmission_en": "Hydrostatic",
    "fuel_ru": "Электричество",
    "fuel_en": "Diesel Fuel / Electricity",
    "email": "bobbizamora@portaline.com",
    "phone": "+1 (913) 411-3463",
    "about": "Magna sunt ut eu ex cillum dolore Lorem. Laboris officia culpa culpa Lorem laborum aliquip deserunt. Excepteur tempor minim quis laboris sit excepteur consectetur sint enim non elit. Commodo enim esse culpa proident ea quis adipisicing aliquip. Veniam mollit velit irure ex magna laborum ipsum.\r\n",
    "registered": "2017-06-13T07:16:18 -03:00",
    "tags": [
      "mollit",
      "id",
      "sint",
      "in",
      "voluptate",
      "deserunt",
      "culpa"
    ]
  },
  {
    "_id": "5ce304b81b824821bd61b897",
    "index": 19,
    "isActive": false,
    "picture": "https://besthqwallpapers.com/Uploads/25-9-2018/66680/thumb2-tesla-model-x-novitec-2018-exterior-white-electric-car.jpg",
    "year": 1994,
    "price": 7547,
    "color": "black",
    "carType": "Hatch—back",
    "name": "Justice",
    "carmark": "Volkswagen",
    "bodytype_ru": "Минивэн",
    "bodytype_en": "Cabriolet",
    "transmission_ru": "Автомат",
    "transmission_en": "Hydrostatic",
    "fuel_ru": "Дизтопливо/Электричество",
    "fuel_en": "Diesel Fuel / Electricity",
    "email": "justicezamora@portaline.com",
    "phone": "+1 (897) 421-3434",
    "about": "Ex ea enim excepteur eu occaecat veniam incididunt esse. Nisi et ut duis id nisi esse amet. Dolore nisi ipsum ut ipsum eu ex exercitation anim et minim esse non. Lorem dolore officia qui exercitation consequat sunt.\r\n",
    "registered": "2015-02-26T05:11:03 -02:00",
    "tags": [
      "magna",
      "et",
      "do",
      "est",
      "sit",
      "consequat",
      "cillum"
    ]
  },
  {
    "_id": "5ce304b8b0cefa0202b28205",
    "index": 20,
    "isActive": true,
    "picture": "https://besthqwallpapers.com/Uploads/25-9-2018/66680/thumb2-tesla-model-x-novitec-2018-exterior-white-electric-car.jpg",
    "year": 1991,
    "price": 2491,
    "color": "pink",
    "carType": "Hatch—back",
    "name": "Lloyd",
    "carmark": "Volkswagen",
    "bodytype_ru": "Микровэн",
    "bodytype_en": "Coupe",
    "transmission_ru": "Полуавтомат",
    "transmission_en": "Tiptronic",
    "fuel_ru": "Электричество",
    "fuel_en": "Gasoline",
    "email": "lloydzamora@portaline.com",
    "phone": "+1 (963) 467-2678",
    "about": "Excepteur ex velit Lorem fugiat aliqua officia quis dolore id ut. Quis aute tempor nulla officia ullamco proident sint est amet. Adipisicing dolor laboris dolore exercitation dolor elit veniam id duis fugiat eu anim. Fugiat nulla deserunt aute velit et commodo laborum id laboris consequat ut elit incididunt. Dolor elit exercitation ad culpa laboris tempor enim mollit nostrud consectetur incididunt qui laborum culpa. Ea velit aliqua id anim enim quis tempor sint exercitation excepteur qui tempor non.\r\n",
    "registered": "2015-11-22T02:11:50 -02:00",
    "tags": [
      "occaecat",
      "cillum",
      "non",
      "nulla",
      "minim",
      "veniam",
      "pariatur"
    ]
  },
  {
    "_id": "5ce304b84c8d2d9cc405d1e4",
    "index": 21,
    "isActive": false,
    "picture": "https://besthqwallpapers.com/Uploads/25-9-2018/66680/thumb2-tesla-model-x-novitec-2018-exterior-white-electric-car.jpg",
    "year": 1994,
    "price": 3748,
    "color": "green",
    "carType": "Sports car",
    "name": "Erna",
    "carmark": "ВАЗ",
    "bodytype_ru": "Купе",
    "bodytype_en": "Pickup",
    "transmission_ru": "Механическая",
    "transmission_en": "Hydromechanical",
    "fuel_ru": "Дизтопливо",
    "fuel_en": "Diesel Fuel",
    "email": "ernazamora@portaline.com",
    "phone": "+1 (881) 429-3746",
    "about": "Irure elit laboris esse officia veniam. Consequat fugiat culpa sit veniam est aliqua cillum veniam sit ut labore aliquip minim dolor. Est est proident id adipisicing Lorem exercitation sit officia ut elit. Adipisicing sunt amet enim labore eu velit aliquip commodo eiusmod tempor culpa. Exercitation anim qui dolor consequat ipsum fugiat nisi veniam incididunt ex non. Adipisicing ea sint enim aute occaecat reprehenderit incididunt culpa nulla. Dolor consequat non in quis amet dolore laborum laborum velit proident amet laboris.\r\n",
    "registered": "2014-02-10T05:23:19 -02:00",
    "tags": [
      "consectetur",
      "esse",
      "do",
      "eu",
      "laboris",
      "ullamco",
      "ad"
    ]
  },
  {
    "_id": "5ce304b8db2b1407ed76459d",
    "index": 22,
    "isActive": false,
    "picture": "https://besthqwallpapers.com/Uploads/25-9-2018/66680/thumb2-tesla-model-x-novitec-2018-exterior-white-electric-car.jpg",
    "year": 2004,
    "price": 1016,
    "color": "green",
    "carType": "Hatch—back",
    "name": "Ray",
    "carmark": "Mazda",
    "bodytype_ru": "Микроавтобус",
    "bodytype_en": "Cabriolet",
    "transmission_ru": "Механическая",
    "transmission_en": "Hydromechanical",
    "fuel_ru": "Бензин/Электричество",
    "fuel_en": "Gas",
    "email": "rayzamora@portaline.com",
    "phone": "+1 (882) 544-2624",
    "about": "Elit consectetur sint et aliquip. Laboris officia esse nostrud incididunt qui et eiusmod minim nisi nulla commodo anim. Minim ipsum cillum velit esse velit sit ipsum est in tempor magna culpa. Nulla culpa nisi aliqua mollit adipisicing qui sunt cillum velit. Culpa occaecat quis ad proident laboris anim in ipsum. Enim dolor qui consequat elit ut reprehenderit ipsum ut exercitation labore elit voluptate laboris fugiat. Incididunt reprehenderit id ullamco occaecat velit consequat tempor aliquip cillum non dolor dolor aute.\r\n",
    "registered": "2017-10-10T04:35:55 -03:00",
    "tags": [
      "ad",
      "nisi",
      "ut",
      "esse",
      "duis",
      "tempor",
      "nisi"
    ]
  },
  {
    "_id": "5ce304b8a75ac2e8ba83750d",
    "index": 23,
    "isActive": false,
    "picture": "https://besthqwallpapers.com/Uploads/25-9-2018/66680/thumb2-tesla-model-x-novitec-2018-exterior-white-electric-car.jpg",
    "year": 1994,
    "price": 4825,
    "color": "red",
    "carType": "Sports car",
    "name": "Daugherty",
    "carmark": "Volkswagen",
    "bodytype_ru": "Купе",
    "bodytype_en": "Coupe",
    "transmission_ru": "Роботизированная",
    "transmission_en": "Hydrostatic",
    "fuel_ru": "Газ",
    "fuel_en": "Gasoline",
    "email": "daughertyzamora@portaline.com",
    "phone": "+1 (953) 447-3686",
    "about": "Culpa elit veniam dolor velit. Commodo laborum nisi dolore nulla eiusmod dolor occaecat sunt sint Lorem culpa aute cupidatat. Ex deserunt reprehenderit occaecat sit quis minim anim voluptate mollit labore consequat reprehenderit eiusmod.\r\n",
    "registered": "2017-08-14T01:25:55 -03:00",
    "tags": [
      "dolore",
      "consequat",
      "culpa",
      "nisi",
      "velit",
      "enim",
      "Lorem"
    ]
  },
  {
    "_id": "5ce304b89e7894632fb7ffd0",
    "index": 24,
    "isActive": true,
    "picture": "https://besthqwallpapers.com/Uploads/25-9-2018/66680/thumb2-tesla-model-x-novitec-2018-exterior-white-electric-car.jpg",
    "year": 1998,
    "price": 3405,
    "color": "red",
    "carType": "Sports car",
    "name": "Christina",
    "carmark": "Chevrolet",
    "bodytype_ru": "Купе",
    "bodytype_en": "Coupe",
    "transmission_ru": "Типтроник",
    "transmission_en": "Semiautomatic",
    "fuel_ru": "Бензин/Газ",
    "fuel_en": "Electricity",
    "email": "christinazamora@portaline.com",
    "phone": "+1 (862) 548-2484",
    "about": "Ea nulla in dolore sit culpa eu incididunt aliquip fugiat elit irure et aute veniam. Adipisicing incididunt ea laborum cupidatat velit ea et. Consectetur culpa nostrud qui veniam non laboris aute fugiat eu do elit. Irure elit esse ullamco exercitation amet ullamco nostrud labore ex id cillum laboris consectetur excepteur. Sunt aliquip veniam culpa ullamco ipsum elit proident excepteur dolor ex enim nostrud magna. Anim est occaecat anim pariatur commodo eu dolor.\r\n",
    "registered": "2015-07-06T03:43:59 -03:00",
    "tags": [
      "elit",
      "consectetur",
      "ut",
      "irure",
      "aliquip",
      "id",
      "nostrud"
    ]
  },
  {
    "_id": "5ce304b8b4c823ff9cfdaf63",
    "index": 25,
    "isActive": false,
    "picture": "https://besthqwallpapers.com/Uploads/25-9-2018/66680/thumb2-tesla-model-x-novitec-2018-exterior-white-electric-car.jpg",
    "year": 1994,
    "price": 6258,
    "color": "red",
    "carType": "Coupe",
    "name": "Norris",
    "carmark": "Mazda",
    "bodytype_ru": "Микроавтобус",
    "bodytype_en": "Crossover",
    "transmission_ru": "Гидростатическая",
    "transmission_en": "Automatic",
    "fuel_ru": "Дизтопливо/Электричество",
    "fuel_en": "Diesel Fuel",
    "email": "norriszamora@portaline.com",
    "phone": "+1 (860) 532-2801",
    "about": "Id eiusmod ad irure id fugiat labore labore nisi ea dolore. Minim proident cillum nisi anim excepteur laborum officia commodo proident qui est. Consequat exercitation voluptate sunt irure.\r\n",
    "registered": "2015-07-16T04:24:02 -03:00",
    "tags": [
      "id",
      "laborum",
      "est",
      "eiusmod",
      "magna",
      "aute",
      "occaecat"
    ]
  },
  {
    "_id": "5ce304b89262e7a655fff80d",
    "index": 26,
    "isActive": false,
    "picture": "https://besthqwallpapers.com/Uploads/25-9-2018/66680/thumb2-tesla-model-x-novitec-2018-exterior-white-electric-car.jpg",
    "year": 1981,
    "price": 2865,
    "color": "black",
    "carType": "Sports car",
    "name": "Elinor",
    "carmark": "Tesla",
    "bodytype_ru": "Лифтбэк",
    "bodytype_en": "Off-road",
    "transmission_ru": "Вариатор",
    "transmission_en": "Mechanical",
    "fuel_ru": "Газ",
    "fuel_en": "Gasoline / Electricity",
    "email": "elinorzamora@portaline.com",
    "phone": "+1 (805) 592-3421",
    "about": "Proident sit laboris qui irure consectetur culpa. Excepteur voluptate pariatur mollit ad anim in magna et reprehenderit do culpa enim ex. Reprehenderit sunt culpa sit nulla laborum Lorem ea in enim sit nostrud velit. Velit sunt laborum pariatur ad nulla mollit consectetur mollit commodo amet pariatur pariatur esse ipsum. Mollit duis quis ipsum minim amet elit occaecat dolore voluptate aliquip consequat.\r\n",
    "registered": "2014-06-29T10:59:10 -03:00",
    "tags": [
      "consequat",
      "aliqua",
      "ipsum",
      "anim",
      "cupidatat",
      "ullamco",
      "occaecat"
    ]
  },
  {
    "_id": "5ce304b8f8e6ac14e9360b4d",
    "index": 27,
    "isActive": true,
    "picture": "https://besthqwallpapers.com/Uploads/25-9-2018/66680/thumb2-tesla-model-x-novitec-2018-exterior-white-electric-car.jpg",
    "year": 1980,
    "price": 2221,
    "color": "black",
    "carType": "Passenger car",
    "name": "Gross",
    "carmark": "Nissan",
    "bodytype_ru": "Пикап",
    "bodytype_en": "Pickup",
    "transmission_ru": "Секвентальная",
    "transmission_en": "Mechanical",
    "fuel_ru": "Газ",
    "fuel_en": "Diesel Fuel",
    "email": "grosszamora@portaline.com",
    "phone": "+1 (970) 524-3358",
    "about": "Commodo elit excepteur sint dolore nisi nisi pariatur id mollit ad voluptate quis enim. Eu ullamco sit deserunt labore ut pariatur veniam. Est velit ad nisi proident. Laborum nisi dolor Lorem dolore officia. Quis culpa veniam tempor officia cillum sit anim aliqua incididunt esse voluptate minim aute laboris. Veniam sunt ad irure dolor proident.\r\n",
    "registered": "2017-02-03T02:55:52 -02:00",
    "tags": [
      "occaecat",
      "labore",
      "dolor",
      "exercitation",
      "ut",
      "veniam",
      "cillum"
    ]
  },
  {
    "_id": "5ce304b84d6312885e3cc894",
    "index": 28,
    "isActive": false,
    "picture": "https://besthqwallpapers.com/Uploads/25-9-2018/66680/thumb2-tesla-model-x-novitec-2018-exterior-white-electric-car.jpg",
    "year": 1987,
    "price": 7914,
    "color": "pink",
    "carType": "Hatch—back",
    "name": "Hensley",
    "carmark": "Volkswagen",
    "bodytype_ru": "Кроссовер",
    "bodytype_en": "Minivan",
    "transmission_ru": "Типтроник",
    "transmission_en": "Variator",
    "fuel_ru": "Бензин",
    "fuel_en": "Electricity",
    "email": "hensleyzamora@portaline.com",
    "phone": "+1 (817) 547-2650",
    "about": "Ipsum eu ex incididunt aliquip magna laborum. Dolor pariatur aliqua voluptate do esse non ad anim elit ipsum exercitation. Enim incididunt eu exercitation ea aliqua enim et sunt duis minim consequat aliquip est. Fugiat cupidatat et ex aute aliquip non veniam cillum.\r\n",
    "registered": "2015-09-08T05:47:45 -03:00",
    "tags": [
      "qui",
      "officia",
      "laborum",
      "officia",
      "ullamco",
      "reprehenderit",
      "sint"
    ]
  },
  {
    "_id": "5ce304b82f6b0eef051d7b54",
    "index": 29,
    "isActive": true,
    "picture": "https://besthqwallpapers.com/Uploads/25-9-2018/66680/thumb2-tesla-model-x-novitec-2018-exterior-white-electric-car.jpg",
    "year": 1984,
    "price": 6617,
    "color": "green",
    "carType": "Hybrid",
    "name": "Juana",
    "carmark": "Mercedes",
    "bodytype_ru": "Кабриолет",
    "bodytype_en": "Off-road",
    "transmission_ru": "Полуавтомат",
    "transmission_en": "Variator",
    "fuel_ru": "Бензин/Газ",
    "fuel_en": "Gasoline",
    "email": "juanazamora@portaline.com",
    "phone": "+1 (915) 551-3557",
    "about": "Sit aliquip sunt nulla tempor dolore sunt exercitation Lorem. Nulla cupidatat Lorem incididunt esse. Ex occaecat excepteur eu qui ut ad fugiat quis voluptate deserunt cupidatat. Dolor reprehenderit incididunt ipsum duis ea aliqua voluptate qui pariatur velit aute irure est.\r\n",
    "registered": "2019-02-20T03:45:44 -02:00",
    "tags": [
      "do",
      "tempor",
      "elit",
      "ut",
      "consectetur",
      "amet",
      "qui"
    ]
  },
  {
    "_id": "5ce304b8b539bbffca913a1b",
    "index": 30,
    "isActive": true,
    "picture": "https://besthqwallpapers.com/Uploads/25-9-2018/66680/thumb2-tesla-model-x-novitec-2018-exterior-white-electric-car.jpg",
    "year": 1982,
    "price": 6618,
    "color": "blue",
    "carType": "Passenger car",
    "name": "Terra",
    "carmark": "ВАЗ",
    "bodytype_ru": "Микровэн",
    "bodytype_en": "Minivan",
    "transmission_ru": "Полуавтомат",
    "transmission_en": "Hydromechanical",
    "fuel_ru": "Дизтопливо/Электричество",
    "fuel_en": "Gasoline",
    "email": "terrazamora@portaline.com",
    "phone": "+1 (946) 464-2409",
    "about": "Aliquip velit proident consectetur dolor nulla duis. Aliquip irure qui consectetur minim voluptate proident exercitation reprehenderit officia in in velit laboris. Tempor ex culpa et irure laboris incididunt enim reprehenderit nostrud laborum dolor cupidatat. Reprehenderit esse ad tempor labore. Laborum culpa sint exercitation dolore est qui tempor consectetur magna sint dolor pariatur. Fugiat excepteur voluptate enim in id non elit deserunt excepteur occaecat. Proident proident in fugiat pariatur deserunt ex ullamco labore culpa veniam sint.\r\n",
    "registered": "2017-07-24T01:03:50 -03:00",
    "tags": [
      "deserunt",
      "consequat",
      "fugiat",
      "tempor",
      "do",
      "Lorem",
      "fugiat"
    ]
  },
  {
    "_id": "5ce304b86ab4d5effb73cabe",
    "index": 31,
    "isActive": true,
    "picture": "https://besthqwallpapers.com/Uploads/25-9-2018/66680/thumb2-tesla-model-x-novitec-2018-exterior-white-electric-car.jpg",
    "year": 1984,
    "price": 4050,
    "color": "red",
    "carType": "Sports car",
    "name": "Jessica",
    "carmark": "Nissan",
    "bodytype_ru": "Лифтбэк",
    "bodytype_en": "Coupe",
    "transmission_ru": "Гидростатическая",
    "transmission_en": "Robotic",
    "fuel_ru": "Дизтопливо/Электричество",
    "fuel_en": "Diesel Fuel / Electricity",
    "email": "jessicazamora@portaline.com",
    "phone": "+1 (867) 493-3017",
    "about": "Elit nostrud reprehenderit nisi adipisicing duis. Mollit mollit ullamco tempor nostrud ullamco labore cillum nulla aute reprehenderit dolore sit in. Incididunt consequat velit excepteur amet proident Lorem dolor ad. Commodo sint sit mollit dolor eiusmod deserunt dolore esse deserunt excepteur. Laboris esse eu sint labore sint quis et qui non nostrud.\r\n",
    "registered": "2018-08-28T02:33:23 -03:00",
    "tags": [
      "nisi",
      "in",
      "consectetur",
      "reprehenderit",
      "sint",
      "culpa",
      "eiusmod"
    ]
  },
  {
    "_id": "5ce304b8a121d32604b6f092",
    "index": 32,
    "isActive": true,
    "picture": "https://besthqwallpapers.com/Uploads/25-9-2018/66680/thumb2-tesla-model-x-novitec-2018-exterior-white-electric-car.jpg",
    "year": 1986,
    "price": 2340,
    "color": "pink",
    "carType": "Coupe",
    "name": "Thornton",
    "carmark": "Tesla",
    "bodytype_ru": "Лифтбэк",
    "bodytype_en": "Liftback",
    "transmission_ru": "Гидромеханическая",
    "transmission_en": "Semiautomatic",
    "fuel_ru": "Газ",
    "fuel_en": "Gasoline / Gas",
    "email": "thorntonzamora@portaline.com",
    "phone": "+1 (983) 444-2589",
    "about": "Sunt amet sint excepteur nostrud nostrud est aliquip ex dolor tempor. Ipsum qui fugiat eiusmod exercitation deserunt occaecat fugiat id. Duis Lorem reprehenderit qui dolore non sunt eu aliquip excepteur duis adipisicing elit occaecat. Pariatur dolore labore reprehenderit ad pariatur laborum nostrud occaecat adipisicing deserunt dolor.\r\n",
    "registered": "2015-01-17T07:47:13 -02:00",
    "tags": [
      "non",
      "deserunt",
      "ea",
      "occaecat",
      "aliqua",
      "aliquip",
      "consectetur"
    ]
  },
  {
    "_id": "5ce304b8b3f5075806a54171",
    "index": 33,
    "isActive": true,
    "picture": "https://besthqwallpapers.com/Uploads/25-9-2018/66680/thumb2-tesla-model-x-novitec-2018-exterior-white-electric-car.jpg",
    "year": 1999,
    "price": 5605,
    "color": "black",
    "carType": "Hatch—back",
    "name": "Tasha",
    "carmark": "Mercedes",
    "bodytype_ru": "Кроссовер",
    "bodytype_en": "Liftback",
    "transmission_ru": "Гидромеханическая",
    "transmission_en": "Robotic",
    "fuel_ru": "Электричество",
    "fuel_en": "Gasoline / Gas",
    "email": "tashazamora@portaline.com",
    "phone": "+1 (827) 424-3844",
    "about": "Voluptate dolor fugiat cupidatat reprehenderit dolore fugiat consectetur consequat cupidatat ex nulla mollit sunt. Deserunt cupidatat non velit non incididunt occaecat veniam dolore est velit proident adipisicing. In occaecat consequat cupidatat eu nisi do aliqua ut consequat nulla ea nisi.\r\n",
    "registered": "2015-09-17T05:08:56 -03:00",
    "tags": [
      "id",
      "veniam",
      "exercitation",
      "nisi",
      "duis",
      "excepteur",
      "fugiat"
    ]
  },
  {
    "_id": "5ce304b84e0f2bcecf0ae03b",
    "index": 34,
    "isActive": true,
    "picture": "https://besthqwallpapers.com/Uploads/25-9-2018/66680/thumb2-tesla-model-x-novitec-2018-exterior-white-electric-car.jpg",
    "year": 1990,
    "price": 2845,
    "color": "brown",
    "carType": "Minivan",
    "name": "Roseann",
    "carmark": "Huyndai",
    "bodytype_ru": "Пикап",
    "bodytype_en": "Cabriolet",
    "transmission_ru": "Типтроник",
    "transmission_en": "Variator",
    "fuel_ru": "Газ",
    "fuel_en": "Gasoline / Electricity",
    "email": "roseannzamora@portaline.com",
    "phone": "+1 (920) 568-3930",
    "about": "Velit adipisicing adipisicing sint ad incididunt magna quis. Duis laborum sunt excepteur nostrud quis minim do excepteur Lorem do fugiat laboris fugiat adipisicing. Laboris nostrud exercitation eiusmod amet voluptate ullamco ea reprehenderit officia deserunt ipsum quis id. Ea minim aliqua et esse sunt veniam reprehenderit in cupidatat elit. Sunt deserunt dolore sunt in anim. Sit occaecat aute cupidatat irure nisi in consequat veniam in proident enim fugiat ipsum ad.\r\n",
    "registered": "2017-03-09T11:34:02 -02:00",
    "tags": [
      "in",
      "incididunt",
      "et",
      "deserunt",
      "incididunt",
      "sit",
      "ipsum"
    ]
  },
  {
    "_id": "5ce304b832f59b8a1f122d87",
    "index": 35,
    "isActive": false,
    "picture": "https://besthqwallpapers.com/Uploads/25-9-2018/66680/thumb2-tesla-model-x-novitec-2018-exterior-white-electric-car.jpg",
    "year": 1998,
    "price": 1572,
    "color": "black",
    "carType": "Hatch—back",
    "name": "Franco",
    "carmark": "Mercedes",
    "bodytype_ru": "Микроавтобус",
    "bodytype_en": "Coupe",
    "transmission_ru": "Секвентальная",
    "transmission_en": "Semiautomatic",
    "fuel_ru": "Бензин/Электричество",
    "fuel_en": "Gasoline",
    "email": "francozamora@portaline.com",
    "phone": "+1 (832) 425-2624",
    "about": "Laborum laborum excepteur adipisicing incididunt eiusmod sint ut enim sit officia ea. Voluptate velit ea aliquip incididunt aute. Ullamco fugiat voluptate laboris laboris id do reprehenderit tempor aute. Officia eiusmod ullamco laboris adipisicing nulla non pariatur. Fugiat ullamco laboris ullamco occaecat irure aliquip aliqua. Amet exercitation do reprehenderit id sunt anim occaecat occaecat laboris occaecat aliquip id. Exercitation ex labore labore consequat minim ad veniam minim do consectetur nostrud amet.\r\n",
    "registered": "2018-08-02T09:50:47 -03:00",
    "tags": [
      "adipisicing",
      "anim",
      "voluptate",
      "et",
      "incididunt",
      "adipisicing",
      "proident"
    ]
  },
  {
    "_id": "5ce304b8ce079645b0771b57",
    "index": 36,
    "isActive": false,
    "picture": "https://besthqwallpapers.com/Uploads/25-9-2018/66680/thumb2-tesla-model-x-novitec-2018-exterior-white-electric-car.jpg",
    "year": 1987,
    "price": 632,
    "color": "red",
    "carType": "Minivan",
    "name": "Bailey",
    "carmark": "Chevrolet",
    "bodytype_ru": "Кроссовер",
    "bodytype_en": "Off-road",
    "transmission_ru": "Полуавтомат",
    "transmission_en": "Hydromechanical",
    "fuel_ru": "Газ",
    "fuel_en": "Gasoline / Electricity",
    "email": "baileyzamora@portaline.com",
    "phone": "+1 (958) 547-3006",
    "about": "Esse aliquip id culpa eiusmod. Dolor amet elit non in deserunt laboris nisi eiusmod pariatur officia elit labore eiusmod veniam. Lorem nostrud nisi culpa elit commodo Lorem magna commodo consequat eiusmod sint.\r\n",
    "registered": "2015-09-29T08:36:26 -03:00",
    "tags": [
      "dolore",
      "ipsum",
      "cillum",
      "adipisicing",
      "cupidatat",
      "commodo",
      "quis"
    ]
  },
  {
    "_id": "5ce304b85a4cb1957208755e",
    "index": 37,
    "isActive": true,
    "picture": "https://besthqwallpapers.com/Uploads/25-9-2018/66680/thumb2-tesla-model-x-novitec-2018-exterior-white-electric-car.jpg",
    "year": 1997,
    "price": 8860,
    "color": "brown",
    "carType": "Minivan",
    "name": "Christian",
    "carmark": "ВАЗ",
    "bodytype_ru": "Внедорожник",
    "bodytype_en": "Coupe",
    "transmission_ru": "Секвентальная",
    "transmission_en": "Automatic",
    "fuel_ru": "Бензин/Электричество",
    "fuel_en": "Diesel Fuel / Electricity",
    "email": "christianzamora@portaline.com",
    "phone": "+1 (925) 563-2105",
    "about": "Sit consequat consequat consequat nisi excepteur sint ad laboris nostrud enim ex minim exercitation amet. Sunt irure amet dolor deserunt anim ut in quis cillum exercitation in esse pariatur. In excepteur qui cupidatat do. Elit minim cupidatat nisi aute et culpa Lorem laboris commodo enim occaecat sint. Adipisicing velit dolore ex duis laborum pariatur ut eu labore fugiat.\r\n",
    "registered": "2018-08-31T09:53:42 -03:00",
    "tags": [
      "officia",
      "esse",
      "aliqua",
      "ullamco",
      "sit",
      "ea",
      "nisi"
    ]
  },
  {
    "_id": "5ce304b8bfe191de7ce0a31b",
    "index": 38,
    "isActive": true,
    "picture": "https://besthqwallpapers.com/Uploads/25-9-2018/66680/thumb2-tesla-model-x-novitec-2018-exterior-white-electric-car.jpg",
    "year": 1993,
    "price": 4437,
    "color": "yellow",
    "carType": "Sedan",
    "name": "Sheppard",
    "carmark": "Tesla",
    "bodytype_ru": "Купе",
    "bodytype_en": "Pickup",
    "transmission_ru": "Планетарная",
    "transmission_en": "Variator",
    "fuel_ru": "Бензин/Газ",
    "fuel_en": "Gasoline",
    "email": "sheppardzamora@portaline.com",
    "phone": "+1 (936) 437-3658",
    "about": "Mollit velit minim amet esse enim laborum ullamco do nisi. Deserunt velit amet qui in exercitation laboris adipisicing non non qui. Deserunt proident voluptate ad laborum culpa exercitation irure ea esse Lorem. Quis laborum ullamco aliquip pariatur in cillum dolor exercitation magna magna eu occaecat sit. Veniam exercitation anim dolor sunt eu aliqua qui nostrud est nisi eiusmod Lorem veniam. Mollit sunt laboris sit ipsum in mollit qui.\r\n",
    "registered": "2015-12-23T06:00:09 -02:00",
    "tags": [
      "ullamco",
      "deserunt",
      "anim",
      "esse",
      "qui",
      "aliqua",
      "fugiat"
    ]
  },
  {
    "_id": "5ce304b8f115f18584ec55e4",
    "index": 39,
    "isActive": false,
    "picture": "https://besthqwallpapers.com/Uploads/25-9-2018/66680/thumb2-tesla-model-x-novitec-2018-exterior-white-electric-car.jpg",
    "year": 2011,
    "price": 9741,
    "color": "red",
    "carType": "Hatch—back",
    "name": "Ruth",
    "carmark": "Chevrolet",
    "bodytype_ru": "Минивэн",
    "bodytype_en": "Off-road",
    "transmission_ru": "Вариатор",
    "transmission_en": "Automatic",
    "fuel_ru": "Газ",
    "fuel_en": "Gasoline / Gas",
    "email": "ruthzamora@portaline.com",
    "phone": "+1 (920) 450-3631",
    "about": "Dolore velit occaecat ad laboris dolore aute do non sit nostrud dolor consequat nostrud. Reprehenderit id do anim excepteur eiusmod deserunt enim elit nulla eu eiusmod tempor elit velit. Ullamco cillum eiusmod occaecat minim deserunt minim do laboris sit pariatur minim. Ex aliqua exercitation ex enim consectetur. Laboris reprehenderit aliqua aute mollit duis id nulla aliqua anim exercitation aliqua cupidatat exercitation tempor. Occaecat amet labore amet ad enim exercitation culpa non exercitation officia sint pariatur minim ut. Pariatur aute cillum est aliqua elit pariatur pariatur ad duis magna dolor dolor eu velit.\r\n",
    "registered": "2015-05-13T03:35:09 -03:00",
    "tags": [
      "culpa",
      "magna",
      "labore",
      "Lorem",
      "Lorem",
      "laborum",
      "sit"
    ]
  },
  {
    "_id": "5ce304b84fa38781be0223f0",
    "index": 40,
    "isActive": true,
    "picture": "https://besthqwallpapers.com/Uploads/25-9-2018/66680/thumb2-tesla-model-x-novitec-2018-exterior-white-electric-car.jpg",
    "year": 2006,
    "price": 561,
    "color": "blue",
    "carType": "Coupe",
    "name": "Estela",
    "carmark": "Huyndai",
    "bodytype_ru": "Лифтбэк",
    "bodytype_en": "Cabriolet",
    "transmission_ru": "Секвентальная",
    "transmission_en": "Hydromechanical",
    "fuel_ru": "Бензин/Электричество",
    "fuel_en": "Gasoline",
    "email": "estelazamora@portaline.com",
    "phone": "+1 (956) 470-3909",
    "about": "Tempor commodo culpa non id. Aute non eiusmod sint non ullamco cupidatat velit ipsum minim ex aute laboris velit. Minim qui exercitation incididunt ipsum laboris irure laboris. Tempor commodo in nostrud amet excepteur fugiat pariatur. Sunt aliquip irure velit pariatur deserunt est enim ullamco sint sint eu ad dolor pariatur. Irure sint consequat occaecat quis labore veniam occaecat ut voluptate aute.\r\n",
    "registered": "2015-03-03T12:28:38 -02:00",
    "tags": [
      "commodo",
      "labore",
      "aliqua",
      "sunt",
      "nostrud",
      "laboris",
      "commodo"
    ]
  },
  {
    "_id": "5ce304b8e5074032163562c8",
    "index": 41,
    "isActive": false,
    "picture": "https://besthqwallpapers.com/Uploads/25-9-2018/66680/thumb2-tesla-model-x-novitec-2018-exterior-white-electric-car.jpg",
    "year": 2005,
    "price": 515,
    "color": "yellow",
    "carType": "Sedan",
    "name": "Bruce",
    "carmark": "Chevrolet",
    "bodytype_ru": "Пикап",
    "bodytype_en": "Minibus",
    "transmission_ru": "Планетарная",
    "transmission_en": "Mechanical",
    "fuel_ru": "Дизтопливо/Электричество",
    "fuel_en": "Diesel Fuel / Electricity",
    "email": "brucezamora@portaline.com",
    "phone": "+1 (886) 559-2259",
    "about": "Excepteur tempor adipisicing velit elit sunt ullamco deserunt enim eu esse reprehenderit velit. Dolore adipisicing magna esse occaecat Lorem sunt Lorem do irure. Velit adipisicing enim est labore deserunt magna. Irure occaecat commodo ex velit adipisicing est Lorem ipsum veniam qui est reprehenderit qui. Labore laborum mollit sint pariatur cupidatat.\r\n",
    "registered": "2015-02-01T11:43:05 -02:00",
    "tags": [
      "minim",
      "enim",
      "voluptate",
      "aute",
      "sit",
      "reprehenderit",
      "adipisicing"
    ]
  },
  {
    "_id": "5ce304b88633bd1213148ec9",
    "index": 42,
    "isActive": true,
    "picture": "https://besthqwallpapers.com/Uploads/25-9-2018/66680/thumb2-tesla-model-x-novitec-2018-exterior-white-electric-car.jpg",
    "year": 2011,
    "price": 5221,
    "color": "pink",
    "carType": "Passenger car",
    "name": "Rosa",
    "carmark": "Chevrolet",
    "bodytype_ru": "Минивэн",
    "bodytype_en": "Liftback",
    "transmission_ru": "Механическая",
    "transmission_en": "Hydrostatic",
    "fuel_ru": "Дизтопливо",
    "fuel_en": "Gasoline / Gas",
    "email": "rosazamora@portaline.com",
    "phone": "+1 (824) 412-3201",
    "about": "Reprehenderit aute consectetur incididunt dolore qui proident ea in consectetur nisi tempor. Adipisicing id tempor occaecat mollit consequat laborum ullamco. Sit laborum deserunt ullamco esse aute eu mollit aliqua elit velit dolore. Deserunt quis aute tempor sit dolore ad ipsum eiusmod sint ullamco laborum. Sunt irure culpa voluptate exercitation amet incididunt nulla.\r\n",
    "registered": "2018-08-25T08:26:06 -03:00",
    "tags": [
      "enim",
      "deserunt",
      "veniam",
      "tempor",
      "magna",
      "sunt",
      "esse"
    ]
  },
  {
    "_id": "5ce304b88269eee084fc9c98",
    "index": 43,
    "isActive": true,
    "picture": "https://besthqwallpapers.com/Uploads/25-9-2018/66680/thumb2-tesla-model-x-novitec-2018-exterior-white-electric-car.jpg",
    "year": 2002,
    "price": 8225,
    "color": "black",
    "carType": "Minivan",
    "name": "Lupe",
    "carmark": "Opel",
    "bodytype_ru": "Лифтбэк",
    "bodytype_en": "Coupe",
    "transmission_ru": "Гидромеханическая",
    "transmission_en": "Variator",
    "fuel_ru": "Бензин",
    "fuel_en": "Diesel Fuel / Electricity",
    "email": "lupezamora@portaline.com",
    "phone": "+1 (907) 441-3217",
    "about": "Non exercitation nisi adipisicing magna aliquip in pariatur id ea quis sunt velit laboris. Tempor sint occaecat aliquip et commodo elit quis. Qui minim irure ea ut exercitation.\r\n",
    "registered": "2018-05-27T05:31:33 -03:00",
    "tags": [
      "sint",
      "incididunt",
      "est",
      "aute",
      "sunt",
      "in",
      "sit"
    ]
  },
  {
    "_id": "5ce304b88d05b7043f51cd0f",
    "index": 44,
    "isActive": false,
    "picture": "https://besthqwallpapers.com/Uploads/25-9-2018/66680/thumb2-tesla-model-x-novitec-2018-exterior-white-electric-car.jpg",
    "year": 2004,
    "price": 1595,
    "color": "red",
    "carType": "Passenger car",
    "name": "Tia",
    "carmark": "Chevrolet",
    "bodytype_ru": "Пикап",
    "bodytype_en": "Pickup",
    "transmission_ru": "Роботизированная",
    "transmission_en": "Hydrostatic",
    "fuel_ru": "Бензин",
    "fuel_en": "Diesel Fuel / Electricity",
    "email": "tiazamora@portaline.com",
    "phone": "+1 (979) 485-2953",
    "about": "Sit tempor ut proident laboris consectetur laborum proident fugiat. Eu consequat consectetur exercitation fugiat id. Aliquip qui labore sint consectetur ad amet id culpa sunt qui veniam laboris. Sit deserunt et cillum est culpa do dolore quis. Ad commodo eu consequat cillum reprehenderit.\r\n",
    "registered": "2017-05-23T06:31:45 -03:00",
    "tags": [
      "id",
      "est",
      "ut",
      "commodo",
      "proident",
      "deserunt",
      "mollit"
    ]
  },
  {
    "_id": "5ce304b8a470e4478ceeb941",
    "index": 45,
    "isActive": true,
    "picture": "https://besthqwallpapers.com/Uploads/25-9-2018/66680/thumb2-tesla-model-x-novitec-2018-exterior-white-electric-car.jpg",
    "year": 1994,
    "price": 9264,
    "color": "brown",
    "carType": "Sedan",
    "name": "Mabel",
    "carmark": "BMW",
    "bodytype_ru": "Пикап",
    "bodytype_en": "Coupe",
    "transmission_ru": "Автомат",
    "transmission_en": "Mechanical",
    "fuel_ru": "Бензин/Электричество",
    "fuel_en": "Gas",
    "email": "mabelzamora@portaline.com",
    "phone": "+1 (913) 583-2437",
    "about": "Amet nulla exercitation do anim commodo pariatur velit consequat mollit. Ullamco non sit cillum amet quis ex commodo tempor. Voluptate id ex Lorem qui irure laborum tempor excepteur.\r\n",
    "registered": "2016-12-09T09:00:26 -02:00",
    "tags": [
      "ad",
      "non",
      "id",
      "duis",
      "qui",
      "occaecat",
      "sunt"
    ]
  },
  {
    "_id": "5ce304b8e86d846bbc944f08",
    "index": 46,
    "isActive": false,
    "picture": "https://besthqwallpapers.com/Uploads/25-9-2018/66680/thumb2-tesla-model-x-novitec-2018-exterior-white-electric-car.jpg",
    "year": 1983,
    "price": 5347,
    "color": "yellow",
    "carType": "Hatch—back",
    "name": "Tabitha",
    "carmark": "Mazda",
    "bodytype_ru": "Пикап",
    "bodytype_en": "Mikroven",
    "transmission_ru": "Механическая",
    "transmission_en": "Hydrostatic",
    "fuel_ru": "Газ",
    "fuel_en": "Gas",
    "email": "tabithazamora@portaline.com",
    "phone": "+1 (900) 563-3201",
    "about": "Reprehenderit ut est commodo aliquip mollit veniam occaecat proident nulla minim ipsum qui. Enim reprehenderit tempor elit eiusmod do ea anim tempor anim fugiat sint incididunt esse. Mollit officia labore mollit ea occaecat labore et. Laboris anim minim velit esse nostrud voluptate dolor aute enim magna quis.\r\n",
    "registered": "2018-04-30T05:09:05 -03:00",
    "tags": [
      "culpa",
      "esse",
      "excepteur",
      "velit",
      "ipsum",
      "duis",
      "culpa"
    ]
  },
  {
    "_id": "5ce304b87322541de79d4cee",
    "index": 47,
    "isActive": true,
    "picture": "https://besthqwallpapers.com/Uploads/25-9-2018/66680/thumb2-tesla-model-x-novitec-2018-exterior-white-electric-car.jpg",
    "year": 2015,
    "price": 7931,
    "color": "green",
    "carType": "Minivan",
    "name": "Gwendolyn",
    "carmark": "BMW",
    "bodytype_ru": "Внедорожник",
    "bodytype_en": "Minivan",
    "transmission_ru": "Секвентальная",
    "transmission_en": "Mechanical",
    "fuel_ru": "Дизтопливо/Электричество",
    "fuel_en": "Electricity",
    "email": "gwendolynzamora@portaline.com",
    "phone": "+1 (893) 465-2777",
    "about": "Proident eiusmod non reprehenderit est mollit reprehenderit sint sunt. Consectetur labore amet consectetur nulla mollit ea laboris ad dolore eiusmod eiusmod nisi. Commodo consectetur ut incididunt enim incididunt aliqua id amet occaecat cillum enim minim esse ipsum. Excepteur do minim aute nulla consectetur veniam esse. Eu ad esse consequat id aute minim adipisicing. Aliqua ullamco ullamco officia quis ipsum nisi est ad. Eiusmod pariatur aliqua ipsum cillum sint.\r\n",
    "registered": "2017-02-14T07:49:39 -02:00",
    "tags": [
      "excepteur",
      "laborum",
      "enim",
      "irure",
      "laboris",
      "ullamco",
      "voluptate"
    ]
  },
  {
    "_id": "5ce304b8d4a9387995e41c80",
    "index": 48,
    "isActive": true,
    "picture": "https://besthqwallpapers.com/Uploads/25-9-2018/66680/thumb2-tesla-model-x-novitec-2018-exterior-white-electric-car.jpg",
    "year": 1983,
    "price": 691,
    "color": "black",
    "carType": "Sports car",
    "name": "Allison",
    "carmark": "Mazda",
    "bodytype_ru": "Внедорожник",
    "bodytype_en": "Liftback",
    "transmission_ru": "Вариатор",
    "transmission_en": "Robotic",
    "fuel_ru": "Дизтопливо",
    "fuel_en": "Gas",
    "email": "allisonzamora@portaline.com",
    "phone": "+1 (897) 514-3507",
    "about": "Mollit aliquip ullamco mollit nostrud occaecat ea anim id anim sint sunt in. Quis et proident officia consequat sit amet consequat exercitation exercitation enim nisi ut. Dolore fugiat ea ullamco mollit exercitation ea cupidatat in nulla nulla. Anim et officia ea culpa dolor sint.\r\n",
    "registered": "2016-10-04T05:30:02 -03:00",
    "tags": [
      "in",
      "ea",
      "cillum",
      "mollit",
      "esse",
      "mollit",
      "aute"
    ]
  },
  {
    "_id": "5ce304b8dd430fb0903c3ce0",
    "index": 49,
    "isActive": true,
    "picture": "https://besthqwallpapers.com/Uploads/25-9-2018/66680/thumb2-tesla-model-x-novitec-2018-exterior-white-electric-car.jpg",
    "year": 1994,
    "price": 3942,
    "color": "black",
    "carType": "Sports car",
    "name": "Snider",
    "carmark": "Chevrolet",
    "bodytype_ru": "Кабриолет",
    "bodytype_en": "Minibus",
    "transmission_ru": "Планетарная",
    "transmission_en": "Hydromechanical",
    "fuel_ru": "Газ",
    "fuel_en": "Diesel Fuel / Electricity",
    "email": "sniderzamora@portaline.com",
    "phone": "+1 (986) 503-3186",
    "about": "Nostrud esse eu occaecat pariatur voluptate irure officia Lorem. Proident non aute mollit sit exercitation cillum excepteur occaecat laborum labore dolor. Dolore minim ipsum aliqua do elit ipsum ullamco consectetur sint. Ipsum magna cillum adipisicing commodo cupidatat labore irure adipisicing duis ipsum. Incididunt enim exercitation ut eiusmod. Ullamco mollit aliquip laboris consequat et esse ad aliquip ea amet ad incididunt exercitation.\r\n",
    "registered": "2018-01-10T04:25:10 -02:00",
    "tags": [
      "ullamco",
      "velit",
      "officia",
      "sit",
      "eu",
      "eu",
      "ut"
    ]
  },
  {
    "_id": "5ce304b8eb0b0be96519f2f7",
    "index": 50,
    "isActive": true,
    "picture": "https://besthqwallpapers.com/Uploads/25-9-2018/66680/thumb2-tesla-model-x-novitec-2018-exterior-white-electric-car.jpg",
    "year": 2018,
    "price": 4823,
    "color": "yellow",
    "carType": "Hybrid",
    "name": "Riggs",
    "carmark": "Nissan",
    "bodytype_ru": "Кроссовер",
    "bodytype_en": "Coupe",
    "transmission_ru": "Механическая",
    "transmission_en": "Robotic",
    "fuel_ru": "Бензин/Газ",
    "fuel_en": "Gas",
    "email": "riggszamora@portaline.com",
    "phone": "+1 (848) 579-3215",
    "about": "Dolore laborum veniam sit excepteur sunt sint ut fugiat. Consectetur dolore aliquip exercitation cillum nostrud magna occaecat dolor in adipisicing minim sunt. Veniam in nisi incididunt nisi Lorem dolore ea consectetur pariatur adipisicing minim. Non Lorem irure sunt quis sunt adipisicing. Qui ex magna pariatur consequat proident enim id excepteur elit irure sunt. Nostrud duis ex ea reprehenderit minim eiusmod eiusmod labore consectetur ad officia magna.\r\n",
    "registered": "2014-02-25T10:58:10 -02:00",
    "tags": [
      "aliquip",
      "commodo",
      "ullamco",
      "culpa",
      "sint",
      "non",
      "do"
    ]
  },
  {
    "_id": "5ce304b83cf5499ab25d3528",
    "index": 51,
    "isActive": true,
    "picture": "https://besthqwallpapers.com/Uploads/25-9-2018/66680/thumb2-tesla-model-x-novitec-2018-exterior-white-electric-car.jpg",
    "year": 1983,
    "price": 5974,
    "color": "green",
    "carType": "Coupe",
    "name": "Billie",
    "carmark": "Mercedes",
    "bodytype_ru": "Кроссовер",
    "bodytype_en": "Cabriolet",
    "transmission_ru": "Механическая",
    "transmission_en": "Robotic",
    "fuel_ru": "Бензин/Электричество",
    "fuel_en": "Electricity",
    "email": "billiezamora@portaline.com",
    "phone": "+1 (964) 490-3189",
    "about": "Laboris tempor et ipsum mollit qui commodo occaecat veniam. Fugiat velit deserunt nostrud occaecat incididunt est quis dolore fugiat magna. Non ea enim cupidatat quis in proident in et. Minim ipsum eiusmod eiusmod adipisicing duis qui voluptate ex esse minim. Culpa pariatur non officia cupidatat voluptate sint pariatur excepteur.\r\n",
    "registered": "2018-03-17T04:35:31 -02:00",
    "tags": [
      "tempor",
      "ipsum",
      "ut",
      "fugiat",
      "cupidatat",
      "exercitation",
      "enim"
    ]
  },
  {
    "_id": "5ce304b870f15061f7e3605b",
    "index": 52,
    "isActive": false,
    "picture": "https://besthqwallpapers.com/Uploads/25-9-2018/66680/thumb2-tesla-model-x-novitec-2018-exterior-white-electric-car.jpg",
    "year": 2010,
    "price": 6055,
    "color": "green",
    "carType": "Coupe",
    "name": "Kathy",
    "carmark": "BMW",
    "bodytype_ru": "Микроавтобус",
    "bodytype_en": "Minivan",
    "transmission_ru": "Секвентальная",
    "transmission_en": "Hydrostatic",
    "fuel_ru": "Бензин/Газ",
    "fuel_en": "Gasoline / Electricity",
    "email": "kathyzamora@portaline.com",
    "phone": "+1 (945) 567-3295",
    "about": "Occaecat et cillum cillum voluptate veniam do. Deserunt aliquip amet elit exercitation deserunt cupidatat dolore pariatur sit consectetur ipsum nostrud laboris. Lorem irure et quis velit magna esse.\r\n",
    "registered": "2018-04-30T06:47:37 -03:00",
    "tags": [
      "veniam",
      "ex",
      "in",
      "eu",
      "proident",
      "qui",
      "cupidatat"
    ]
  },
  {
    "_id": "5ce304b83c14ca07e541b773",
    "index": 53,
    "isActive": true,
    "picture": "https://besthqwallpapers.com/Uploads/25-9-2018/66680/thumb2-tesla-model-x-novitec-2018-exterior-white-electric-car.jpg",
    "year": 1991,
    "price": 4272,
    "color": "blue",
    "carType": "Sedan",
    "name": "Raquel",
    "carmark": "Mercedes",
    "bodytype_ru": "Лифтбэк",
    "bodytype_en": "Off-road",
    "transmission_ru": "Планетарная",
    "transmission_en": "Planetary",
    "fuel_ru": "Бензин/Электричество",
    "fuel_en": "Electricity",
    "email": "raquelzamora@portaline.com",
    "phone": "+1 (961) 477-3856",
    "about": "Ipsum mollit eiusmod irure elit anim nisi nulla quis aliqua. Laborum veniam qui ipsum elit. Eu ullamco nisi aliqua amet eiusmod velit. Dolor voluptate deserunt proident ut culpa et labore aliqua fugiat. Ipsum dolor id minim reprehenderit do elit minim quis proident commodo duis pariatur. Quis id velit non velit do magna ad.\r\n",
    "registered": "2017-06-14T08:07:52 -03:00",
    "tags": [
      "aute",
      "cillum",
      "id",
      "excepteur",
      "ut",
      "incididunt",
      "proident"
    ]
  },
  {
    "_id": "5ce304b85a682891022b8bfc",
    "index": 54,
    "isActive": false,
    "picture": "https://besthqwallpapers.com/Uploads/25-9-2018/66680/thumb2-tesla-model-x-novitec-2018-exterior-white-electric-car.jpg",
    "year": 1992,
    "price": 4775,
    "color": "black",
    "carType": "Hybrid",
    "name": "Karyn",
    "carmark": "Huyndai",
    "bodytype_ru": "Кроссовер",
    "bodytype_en": "Minibus",
    "transmission_ru": "Гидростатическая",
    "transmission_en": "Sequential",
    "fuel_ru": "Дизтопливо",
    "fuel_en": "Diesel Fuel / Electricity",
    "email": "karynzamora@portaline.com",
    "phone": "+1 (901) 558-2246",
    "about": "Aliquip non incididunt mollit labore ut magna in proident occaecat labore proident veniam veniam tempor. In id do commodo tempor. Pariatur ex non do occaecat excepteur deserunt. Enim sunt laboris sint id labore in in. Deserunt id aliquip culpa fugiat irure ex ad minim cupidatat sunt amet.\r\n",
    "registered": "2019-04-02T04:23:36 -03:00",
    "tags": [
      "sunt",
      "aute",
      "commodo",
      "incididunt",
      "ipsum",
      "culpa",
      "adipisicing"
    ]
  },
  {
    "_id": "5ce304b857e8eddfdad80027",
    "index": 55,
    "isActive": true,
    "picture": "https://besthqwallpapers.com/Uploads/25-9-2018/66680/thumb2-tesla-model-x-novitec-2018-exterior-white-electric-car.jpg",
    "year": 1989,
    "price": 1871,
    "color": "red",
    "carType": "Sedan",
    "name": "Donaldson",
    "carmark": "Opel",
    "bodytype_ru": "Купе",
    "bodytype_en": "Pickup",
    "transmission_ru": "Механическая",
    "transmission_en": "Mechanical",
    "fuel_ru": "Газ",
    "fuel_en": "Gasoline",
    "email": "donaldsonzamora@portaline.com",
    "phone": "+1 (867) 499-3157",
    "about": "Id velit officia ex dolore occaecat dolor non velit culpa voluptate. Eiusmod ex ut culpa laboris in sunt irure. Laborum irure minim adipisicing velit est. Aute nisi fugiat sunt aliqua adipisicing nisi. Lorem tempor dolor aliquip aliquip qui cillum magna deserunt incididunt ea tempor nostrud proident.\r\n",
    "registered": "2016-12-28T06:08:43 -02:00",
    "tags": [
      "velit",
      "qui",
      "mollit",
      "Lorem",
      "irure",
      "velit",
      "commodo"
    ]
  },
  {
    "_id": "5ce304b83c55c81435d058ce",
    "index": 56,
    "isActive": false,
    "picture": "https://besthqwallpapers.com/Uploads/25-9-2018/66680/thumb2-tesla-model-x-novitec-2018-exterior-white-electric-car.jpg",
    "year": 1988,
    "price": 7817,
    "color": "blue",
    "carType": "Sedan",
    "name": "Burks",
    "carmark": "Volkswagen",
    "bodytype_ru": "Микроавтобус",
    "bodytype_en": "Coupe",
    "transmission_ru": "Автомат",
    "transmission_en": "Hydrostatic",
    "fuel_ru": "Бензин/Газ",
    "fuel_en": "Electricity",
    "email": "burkszamora@portaline.com",
    "phone": "+1 (850) 514-3055",
    "about": "Cupidatat tempor amet id et non velit magna non aliqua ex occaecat enim voluptate dolor. Anim nulla voluptate aliqua velit officia est pariatur ea cillum id ea. Culpa nisi ullamco ut velit. Amet excepteur consectetur consequat deserunt excepteur excepteur consequat ipsum qui aute officia amet. Enim tempor deserunt duis enim Lorem aute duis voluptate ullamco quis do mollit elit fugiat.\r\n",
    "registered": "2015-11-29T11:07:48 -02:00",
    "tags": [
      "esse",
      "pariatur",
      "dolore",
      "do",
      "proident",
      "minim",
      "dolor"
    ]
  },
  {
    "_id": "5ce304b89e65cf9cb6441a03",
    "index": 57,
    "isActive": true,
    "picture": "https://besthqwallpapers.com/Uploads/25-9-2018/66680/thumb2-tesla-model-x-novitec-2018-exterior-white-electric-car.jpg",
    "year": 1984,
    "price": 6217,
    "color": "green",
    "carType": "Sports car",
    "name": "Lawrence",
    "carmark": "Nissan",
    "bodytype_ru": "Микроавтобус",
    "bodytype_en": "Off-road",
    "transmission_ru": "Полуавтомат",
    "transmission_en": "Hydromechanical",
    "fuel_ru": "Газ",
    "fuel_en": "Diesel Fuel / Electricity",
    "email": "lawrencezamora@portaline.com",
    "phone": "+1 (832) 424-2062",
    "about": "Cupidatat consectetur et proident laborum. Lorem mollit dolor incididunt laborum deserunt nulla. Aute laborum duis culpa quis commodo.\r\n",
    "registered": "2019-02-11T06:31:11 -02:00",
    "tags": [
      "elit",
      "qui",
      "veniam",
      "tempor",
      "amet",
      "fugiat",
      "pariatur"
    ]
  },
  {
    "_id": "5ce304b83b518607d223e019",
    "index": 58,
    "isActive": true,
    "picture": "https://besthqwallpapers.com/Uploads/25-9-2018/66680/thumb2-tesla-model-x-novitec-2018-exterior-white-electric-car.jpg",
    "year": 2008,
    "price": 7418,
    "color": "yellow",
    "carType": "Minivan",
    "name": "Wade",
    "carmark": "ВАЗ",
    "bodytype_ru": "Микроавтобус",
    "bodytype_en": "Minivan",
    "transmission_ru": "Механическая",
    "transmission_en": "Mechanical",
    "fuel_ru": "Дизтопливо",
    "fuel_en": "Gasoline / Electricity",
    "email": "wadezamora@portaline.com",
    "phone": "+1 (904) 543-2992",
    "about": "Pariatur do esse consectetur labore consequat dolor aliquip minim quis. Dolore nisi consectetur elit nulla nulla laborum voluptate quis tempor minim cillum excepteur labore. Qui irure nostrud anim est culpa. Duis amet proident fugiat esse adipisicing irure exercitation laboris Lorem in commodo esse est dolor.\r\n",
    "registered": "2017-01-28T08:44:03 -02:00",
    "tags": [
      "culpa",
      "quis",
      "labore",
      "laboris",
      "fugiat",
      "sit",
      "ipsum"
    ]
  },
  {
    "_id": "5ce304b8a5baecb60b431eae",
    "index": 59,
    "isActive": true,
    "picture": "https://besthqwallpapers.com/Uploads/25-9-2018/66680/thumb2-tesla-model-x-novitec-2018-exterior-white-electric-car.jpg",
    "year": 2006,
    "price": 1040,
    "color": "yellow",
    "carType": "Minivan",
    "name": "Eaton",
    "carmark": "Tesla",
    "bodytype_ru": "Микроавтобус",
    "bodytype_en": "Minibus",
    "transmission_ru": "Секвентальная",
    "transmission_en": "Variator",
    "fuel_ru": "Дизтопливо/Электричество",
    "fuel_en": "Diesel Fuel",
    "email": "eatonzamora@portaline.com",
    "phone": "+1 (999) 595-3684",
    "about": "Aliquip mollit tempor pariatur velit magna Lorem nulla enim laborum ut culpa ullamco reprehenderit sint. Labore exercitation proident occaecat dolore voluptate dolore sint magna eiusmod officia velit. Aliquip ut ea tempor consectetur labore commodo non tempor laborum officia. Commodo nostrud cillum ex excepteur mollit cillum dolore esse ad nisi ipsum deserunt. Elit cillum eiusmod do enim culpa eu officia dolore laboris sint voluptate voluptate pariatur mollit. Excepteur irure aliqua ea in ut.\r\n",
    "registered": "2015-11-08T09:57:36 -02:00",
    "tags": [
      "incididunt",
      "sint",
      "veniam",
      "duis",
      "culpa",
      "sit",
      "voluptate"
    ]
  },
  {
    "_id": "5ce304b8161a6f0529a964a1",
    "index": 60,
    "isActive": false,
    "picture": "https://besthqwallpapers.com/Uploads/25-9-2018/66680/thumb2-tesla-model-x-novitec-2018-exterior-white-electric-car.jpg",
    "year": 1993,
    "price": 3026,
    "color": "blue",
    "carType": "Minivan",
    "name": "Tanya",
    "carmark": "Tesla",
    "bodytype_ru": "Внедорожник",
    "bodytype_en": "Coupe",
    "transmission_ru": "Типтроник",
    "transmission_en": "Robotic",
    "fuel_ru": "Дизтопливо",
    "fuel_en": "Electricity",
    "email": "tanyazamora@portaline.com",
    "phone": "+1 (918) 504-2013",
    "about": "Do ad nulla officia consectetur ut deserunt id ea sit consequat. Ut minim proident nulla ex ut reprehenderit aliqua do eu commodo non. Anim ipsum eu excepteur adipisicing voluptate.\r\n",
    "registered": "2018-03-09T05:46:50 -02:00",
    "tags": [
      "aute",
      "enim",
      "est",
      "non",
      "sunt",
      "sunt",
      "sunt"
    ]
  },
  {
    "_id": "5ce304b8786ed0d310b66dd0",
    "index": 61,
    "isActive": false,
    "picture": "https://besthqwallpapers.com/Uploads/25-9-2018/66680/thumb2-tesla-model-x-novitec-2018-exterior-white-electric-car.jpg",
    "year": 2018,
    "price": 1560,
    "color": "blue",
    "carType": "Coupe",
    "name": "Leticia",
    "carmark": "Mercedes",
    "bodytype_ru": "Микровэн",
    "bodytype_en": "Off-road",
    "transmission_ru": "Роботизированная",
    "transmission_en": "Mechanical",
    "fuel_ru": "Газ",
    "fuel_en": "Diesel Fuel / Electricity",
    "email": "leticiazamora@portaline.com",
    "phone": "+1 (934) 545-2285",
    "about": "Ut nisi eu pariatur esse tempor consequat magna exercitation officia. In irure voluptate pariatur voluptate nostrud labore enim ullamco occaecat reprehenderit. Ea cillum duis esse proident laborum.\r\n",
    "registered": "2019-02-23T01:52:18 -02:00",
    "tags": [
      "elit",
      "ex",
      "ipsum",
      "eiusmod",
      "dolore",
      "non",
      "laboris"
    ]
  },
  {
    "_id": "5ce304b86a00b808953bf9bd",
    "index": 62,
    "isActive": false,
    "picture": "https://besthqwallpapers.com/Uploads/25-9-2018/66680/thumb2-tesla-model-x-novitec-2018-exterior-white-electric-car.jpg",
    "year": 1996,
    "price": 9819,
    "color": "brown",
    "carType": "Coupe",
    "name": "Anthony",
    "carmark": "Volkswagen",
    "bodytype_ru": "Микроавтобус",
    "bodytype_en": "Cabriolet",
    "transmission_ru": "Планетарная",
    "transmission_en": "Hydromechanical",
    "fuel_ru": "Бензин/Газ",
    "fuel_en": "Gas",
    "email": "anthonyzamora@portaline.com",
    "phone": "+1 (816) 456-2379",
    "about": "Amet elit pariatur cupidatat sit anim irure deserunt aliqua reprehenderit velit officia non. Amet mollit consequat est laboris aliqua. Veniam do culpa irure proident exercitation nostrud do tempor amet dolor ut. Minim proident reprehenderit irure do sint. Adipisicing ea ex dolor minim nulla irure velit enim. Minim nostrud id amet elit ut et Lorem consectetur tempor.\r\n",
    "registered": "2017-01-27T10:16:00 -02:00",
    "tags": [
      "fugiat",
      "sunt",
      "dolore",
      "in",
      "ad",
      "voluptate",
      "in"
    ]
  },
  {
    "_id": "5ce304b8f2590b7bcaa7e681",
    "index": 63,
    "isActive": false,
    "picture": "https://besthqwallpapers.com/Uploads/25-9-2018/66680/thumb2-tesla-model-x-novitec-2018-exterior-white-electric-car.jpg",
    "year": 2014,
    "price": 9757,
    "color": "brown",
    "carType": "Hatch—back",
    "name": "Louella",
    "carmark": "Tesla",
    "bodytype_ru": "Минивэн",
    "bodytype_en": "Minibus",
    "transmission_ru": "Секвентальная",
    "transmission_en": "Robotic",
    "fuel_ru": "Газ",
    "fuel_en": "Diesel Fuel",
    "email": "louellazamora@portaline.com",
    "phone": "+1 (862) 548-3122",
    "about": "Consequat sunt eu irure ullamco aute. Commodo sint exercitation tempor proident anim velit dolor ullamco mollit qui ullamco cupidatat pariatur ullamco. Occaecat ex pariatur enim ullamco laborum nulla exercitation do anim.\r\n",
    "registered": "2015-12-13T03:29:10 -02:00",
    "tags": [
      "adipisicing",
      "adipisicing",
      "officia",
      "elit",
      "adipisicing",
      "ipsum",
      "esse"
    ]
  },
  {
    "_id": "5ce304b8f553152a320a0142",
    "index": 64,
    "isActive": false,
    "picture": "https://besthqwallpapers.com/Uploads/25-9-2018/66680/thumb2-tesla-model-x-novitec-2018-exterior-white-electric-car.jpg",
    "year": 2017,
    "price": 5437,
    "color": "green",
    "carType": "Sedan",
    "name": "Roman",
    "carmark": "Chevrolet",
    "bodytype_ru": "Минивэн",
    "bodytype_en": "Pickup",
    "transmission_ru": "Типтроник",
    "transmission_en": "Semiautomatic",
    "fuel_ru": "Бензин",
    "fuel_en": "Diesel Fuel / Electricity",
    "email": "romanzamora@portaline.com",
    "phone": "+1 (900) 511-2724",
    "about": "Ipsum laborum et ullamco ea aute laborum voluptate veniam incididunt ullamco deserunt. Sit eiusmod voluptate consectetur culpa nostrud mollit aliqua veniam proident qui officia ea nostrud. Aliquip incididunt eu dolor mollit deserunt magna esse dolor ullamco nostrud tempor amet anim aliquip.\r\n",
    "registered": "2014-05-31T04:50:58 -03:00",
    "tags": [
      "sint",
      "sunt",
      "ullamco",
      "amet",
      "Lorem",
      "fugiat",
      "voluptate"
    ]
  },
  {
    "_id": "5ce304b817a2190b20a5e557",
    "index": 65,
    "isActive": false,
    "picture": "https://besthqwallpapers.com/Uploads/25-9-2018/66680/thumb2-tesla-model-x-novitec-2018-exterior-white-electric-car.jpg",
    "year": 1995,
    "price": 3129,
    "color": "yellow",
    "carType": "Hybrid",
    "name": "Consuelo",
    "carmark": "Mazda",
    "bodytype_ru": "Пикап",
    "bodytype_en": "Crossover",
    "transmission_ru": "Планетарная",
    "transmission_en": "Planetary",
    "fuel_ru": "Газ",
    "fuel_en": "Diesel Fuel",
    "email": "consuelozamora@portaline.com",
    "phone": "+1 (899) 506-2648",
    "about": "Occaecat consequat ut id veniam fugiat duis et. Sint esse deserunt dolor amet laborum amet Lorem mollit occaecat Lorem laboris esse culpa. Dolore laborum eiusmod do enim mollit nisi minim commodo velit quis tempor deserunt. Irure fugiat pariatur excepteur reprehenderit. Ullamco consectetur reprehenderit magna magna amet labore tempor magna adipisicing.\r\n",
    "registered": "2018-08-23T06:52:20 -03:00",
    "tags": [
      "amet",
      "magna",
      "pariatur",
      "et",
      "proident",
      "adipisicing",
      "minim"
    ]
  },
  {
    "_id": "5ce304b8fcc278fe8d7b78ee",
    "index": 66,
    "isActive": true,
    "picture": "https://besthqwallpapers.com/Uploads/25-9-2018/66680/thumb2-tesla-model-x-novitec-2018-exterior-white-electric-car.jpg",
    "year": 2007,
    "price": 6550,
    "color": "blue",
    "carType": "Sports car",
    "name": "Sallie",
    "carmark": "Chevrolet",
    "bodytype_ru": "Внедорожник",
    "bodytype_en": "Crossover",
    "transmission_ru": "Механическая",
    "transmission_en": "Hydromechanical",
    "fuel_ru": "Бензин",
    "fuel_en": "Gasoline",
    "email": "salliezamora@portaline.com",
    "phone": "+1 (879) 588-3033",
    "about": "Nulla labore nostrud irure eu veniam ullamco. Incididunt sunt eu reprehenderit nisi consequat anim nulla proident quis magna voluptate veniam cillum ex. Ipsum duis aliquip aliquip mollit exercitation minim.\r\n",
    "registered": "2015-01-15T01:59:51 -02:00",
    "tags": [
      "velit",
      "est",
      "in",
      "laboris",
      "sint",
      "pariatur",
      "incididunt"
    ]
  },
  {
    "_id": "5ce304b8270ff8ccb43cb188",
    "index": 67,
    "isActive": false,
    "picture": "https://besthqwallpapers.com/Uploads/25-9-2018/66680/thumb2-tesla-model-x-novitec-2018-exterior-white-electric-car.jpg",
    "year": 2010,
    "price": 9733,
    "color": "blue",
    "carType": "Hybrid",
    "name": "Whitaker",
    "carmark": "Chevrolet",
    "bodytype_ru": "Лифтбэк",
    "bodytype_en": "Mikroven",
    "transmission_ru": "Механическая",
    "transmission_en": "Semiautomatic",
    "fuel_ru": "Бензин/Газ",
    "fuel_en": "Diesel Fuel",
    "email": "whitakerzamora@portaline.com",
    "phone": "+1 (876) 445-3557",
    "about": "Proident esse reprehenderit non laboris nisi do aute. Quis qui enim nulla anim proident consectetur duis deserunt tempor labore laborum nulla nisi. Ut aute eiusmod proident consectetur ullamco ea irure aliqua ullamco reprehenderit qui aliqua duis. Cillum ea ex excepteur sit. Nostrud enim minim ex esse Lorem.\r\n",
    "registered": "2019-02-03T03:39:04 -02:00",
    "tags": [
      "pariatur",
      "laborum",
      "tempor",
      "non",
      "cupidatat",
      "nisi",
      "minim"
    ]
  },
  {
    "_id": "5ce304b8d5d3571f6305f061",
    "index": 68,
    "isActive": true,
    "picture": "https://besthqwallpapers.com/Uploads/25-9-2018/66680/thumb2-tesla-model-x-novitec-2018-exterior-white-electric-car.jpg",
    "year": 2003,
    "price": 3840,
    "color": "red",
    "carType": "Passenger car",
    "name": "Marsha",
    "carmark": "Mazda",
    "bodytype_ru": "Пикап",
    "bodytype_en": "Liftback",
    "transmission_ru": "Полуавтомат",
    "transmission_en": "Automatic",
    "fuel_ru": "Газ",
    "fuel_en": "Diesel Fuel",
    "email": "marshazamora@portaline.com",
    "phone": "+1 (976) 518-3645",
    "about": "Velit duis fugiat exercitation incididunt consequat. Enim exercitation labore irure velit eiusmod voluptate in aute tempor exercitation dolore reprehenderit nulla. Incididunt duis consectetur duis aute voluptate ipsum. Sunt aute consequat mollit magna cillum magna commodo reprehenderit labore cillum mollit veniam sint. Exercitation irure magna ut mollit occaecat officia velit reprehenderit ullamco dolore sunt pariatur. Velit elit nisi consequat commodo proident aute exercitation aliquip ad irure. Voluptate sint id ad esse mollit sunt quis.\r\n",
    "registered": "2017-11-24T03:06:32 -02:00",
    "tags": [
      "tempor",
      "incididunt",
      "pariatur",
      "laboris",
      "aute",
      "do",
      "elit"
    ]
  },
  {
    "_id": "5ce304b831397e6c2f8ffaab",
    "index": 69,
    "isActive": true,
    "picture": "https://besthqwallpapers.com/Uploads/25-9-2018/66680/thumb2-tesla-model-x-novitec-2018-exterior-white-electric-car.jpg",
    "year": 2008,
    "price": 4502,
    "color": "black",
    "carType": "Minivan",
    "name": "Skinner",
    "carmark": "Volkswagen",
    "bodytype_ru": "Микроавтобус",
    "bodytype_en": "Coupe",
    "transmission_ru": "Секвентальная",
    "transmission_en": "Automatic",
    "fuel_ru": "Дизтопливо",
    "fuel_en": "Gasoline / Electricity",
    "email": "skinnerzamora@portaline.com",
    "phone": "+1 (946) 580-3590",
    "about": "Qui ea aute aliquip esse. Non commodo veniam culpa ullamco ex qui nostrud nisi est. Magna consectetur ut magna eiusmod.\r\n",
    "registered": "2015-08-15T05:08:53 -03:00",
    "tags": [
      "elit",
      "adipisicing",
      "pariatur",
      "cupidatat",
      "amet",
      "laborum",
      "commodo"
    ]
  }
]